{
	"name": "MNS",
	"children": [
		{
			"name": "",
			"children": [
				{
					"name": "*PGM",
					"children": [
						{
							"name": "RPG",
							"children": [
								{
									"name": "CA2.EL01",
									"children": [],
									"size": "3404",
									"weight": 0.09090909090909091,
									"defects": [
										{
											"job": "247176",
											"incident": 1000638,
											"description": "Missed Backfit: 232858",
											"foundInVersion": "",
											"dateRequested": "20160215"
										}
									],
									"count": 1
								},
								{
									"name": "CA2.CE01",
									"children": [],
									"size": "2257",
									"weight": 0.18181818181818182,
									"defects": [
										{
											"job": "252222",
											"incident": 1002142,
											"description": "INC-1002142: Cash Required field - Interaction missing last decimal",
											"foundInVersion": "",
											"dateRequested": "20161005"
										},
										{
											"job": "255716",
											"incident": 1003272,
											"description": "INC-1003272: InterAction BG group limited to 500 BGs",
											"foundInVersion": "",
											"dateRequested": "20170405"
										}
									],
									"count": 2
								},
								{
									"name": "CRS365",
									"children": [],
									"size": "1102",
									"weight": 0.09090909090909091,
									"defects": [
										{
											"job": "256223",
											"incident": 1001389,
											"description": "CRS365: Update SEDOL on a transaction CRS365 - Transaction type selection",
											"foundInVersion": "",
											"dateRequested": "20170511"
										}
									],
									"count": 1
								},
								{
									"name": "CRN700",
									"children": [],
									"size": "1075",
									"weight": 0,
									"defects": []
								},
								{
									"name": "DIR003",
									"children": [],
									"size": "668",
									"weight": 0,
									"defects": []
								},
								{
									"name": "CRS730",
									"children": [],
									"size": "648",
									"weight": 0,
									"defects": []
								},
								{
									"name": "CA2#AL01",
									"children": [],
									"size": "379",
									"weight": 0,
									"defects": []
								},
								{
									"name": "CA1.CE01",
									"children": [],
									"size": "2003",
									"weight": 0,
									"defects": []
								},
								{
									"name": "CA1.EV01",
									"children": [],
									"size": "1710",
									"weight": 0,
									"defects": []
								},
								{
									"name": "FSM004",
									"children": [],
									"size": "1610",
									"weight": 0.09090909090909091,
									"defects": [
										{
											"job": "253647",
											"incident": 1002373,
											"description": "INC-1002373: OIRSK process causing failing trades to settle",
											"foundInVersion": "",
											"dateRequested": "20161213"
										}
									],
									"count": 1
								},
								{
									"name": "CRS171",
									"children": [],
									"size": "1560",
									"weight": 0,
									"defects": []
								},
								{
									"name": "CA2#CLI01",
									"children": [],
									"size": "1502",
									"weight": 0.18181818181818182,
									"defects": [
										{
											"job": "248673",
											"incident": 1000951,
											"description": "I1604-02222 Clients unable to view Corporate Action details via Secure Messages",
											"foundInVersion": "F153P13",
											"dateRequested": "20160420"
										},
										{
											"job": "248970",
											"incident": 1001104,
											"description": "0P1:96172 New outturn security for CA events not visible in Sonata-INC-1001104.",
											"foundInVersion": "",
											"dateRequested": "20160506"
										}
									],
									"count": 2
								},
								{
									"name": "CA1#CLI01",
									"children": [],
									"size": "1464",
									"weight": 0,
									"defects": []
								},
								{
									"name": "CRS687",
									"children": [],
									"size": "1438",
									"weight": 0,
									"defects": []
								},
								{
									"name": "CA2.EV01",
									"children": [],
									"size": "1424",
									"weight": 0.09090909090909091,
									"defects": [
										{
											"job": "247176",
											"incident": 1000638,
											"description": "Missed Backfit: 232858",
											"foundInVersion": "",
											"dateRequested": "20160215"
										}
									],
									"count": 1
								},
								{
									"name": "CRN437",
									"children": [],
									"size": "1351",
									"weight": 0,
									"defects": []
								},
								{
									"name": "CA1.EL01",
									"children": [],
									"size": "1345",
									"weight": 0,
									"defects": []
								},
								{
									"name": "CRS347",
									"children": [],
									"size": "1300",
									"weight": 0,
									"defects": []
								},
								{
									"name": "CRS279",
									"children": [],
									"size": "1223",
									"weight": 0.09090909090909091,
									"defects": [
										{
											"job": "258229",
											"incident": 1004751,
											"description": "INC-1004751: Incorrect Stamp Flag on Irish Exempt Stocks",
											"foundInVersion": "",
											"dateRequested": "20170914"
										}
									],
									"count": 1
								},
								{
									"name": "CRS470",
									"children": [],
									"size": "1185",
									"weight": 0,
									"defects": []
								},
								{
									"name": "CRS032",
									"children": [],
									"size": "1138",
									"weight": 0.09090909090909091,
									"defects": [
										{
											"job": "250047",
											"incident": 1003917,
											"description": "Dev Job for DEX 24 project",
											"foundInVersion": "",
											"dateRequested": "20160602"
										}
									],
									"count": 1
								},
								{
									"name": "CRS967",
									"children": [],
									"size": "1119",
									"weight": 0.09090909090909091,
									"defects": [
										{
											"job": "258229",
											"incident": 1004751,
											"description": "INC-1004751: Incorrect Stamp Flag on Irish Exempt Stocks",
											"foundInVersion": "",
											"dateRequested": "20170914"
										}
									],
									"count": 1
								},
								{
									"name": "CRS434",
									"children": [],
									"size": "1088",
									"weight": 0,
									"defects": []
								},
								{
									"name": "CRS130",
									"children": [],
									"size": "1077",
									"weight": 0,
									"defects": []
								},
								{
									"name": "CRN438",
									"children": [],
									"size": "1056",
									"weight": 0,
									"defects": []
								},
								{
									"name": "CRN700A",
									"children": [],
									"size": "1003",
									"weight": 0,
									"defects": []
								},
								{
									"name": "DIR001",
									"children": [],
									"size": "953",
									"weight": 0,
									"defects": []
								},
								{
									"name": "CRS070",
									"children": [],
									"size": "908",
									"weight": 0,
									"defects": []
								},
								{
									"name": "CRS264",
									"children": [],
									"size": "879",
									"weight": 0,
									"defects": []
								},
								{
									"name": "CRS044",
									"children": [],
									"size": "873",
									"weight": 0,
									"defects": []
								},
								{
									"name": "CRS471",
									"children": [],
									"size": "856",
									"weight": 0.09090909090909091,
									"defects": [
										{
											"job": "258229",
											"incident": 1004751,
											"description": "INC-1004751: Incorrect Stamp Flag on Irish Exempt Stocks",
											"foundInVersion": "",
											"dateRequested": "20170914"
										}
									],
									"count": 1
								},
								{
									"name": "CRN701",
									"children": [],
									"size": "851",
									"weight": 0,
									"defects": []
								},
								{
									"name": "CRS930",
									"children": [],
									"size": "833",
									"weight": 0,
									"defects": []
								},
								{
									"name": "CRS966",
									"children": [],
									"size": "789",
									"weight": 0,
									"defects": []
								},
								{
									"name": "CRS052",
									"children": [],
									"size": "772",
									"weight": 0,
									"defects": []
								},
								{
									"name": "CRS701",
									"children": [],
									"size": "759",
									"weight": 0,
									"defects": []
								},
								{
									"name": "CRS820",
									"children": [],
									"size": "757",
									"weight": 0,
									"defects": []
								},
								{
									"name": "CRS920",
									"children": [],
									"size": "701",
									"weight": 0,
									"defects": []
								},
								{
									"name": "BBH005",
									"children": [],
									"size": "698",
									"weight": 0,
									"defects": []
								},
								{
									"name": "DIR004",
									"children": [],
									"size": "662",
									"weight": 0,
									"defects": []
								},
								{
									"name": "CRS551",
									"children": [],
									"size": "602",
									"weight": 0,
									"defects": []
								},
								{
									"name": "CA1#TRANS",
									"children": [],
									"size": "595",
									"weight": 0,
									"defects": []
								},
								{
									"name": "CA2#TRANS",
									"children": [],
									"size": "595",
									"weight": 0,
									"defects": []
								},
								{
									"name": "CRS370",
									"children": [],
									"size": "560",
									"weight": 0,
									"defects": []
								},
								{
									"name": "CRS141",
									"children": [],
									"size": "558",
									"weight": 0,
									"defects": []
								},
								{
									"name": "INT218",
									"children": [],
									"size": "545",
									"weight": 0,
									"defects": []
								},
								{
									"name": "DIR005",
									"children": [],
									"size": "488",
									"weight": 0,
									"defects": []
								},
								{
									"name": "CRS142",
									"children": [],
									"size": "472",
									"weight": 0,
									"defects": []
								},
								{
									"name": "NJP003",
									"children": [],
									"size": "470",
									"weight": 0,
									"defects": []
								},
								{
									"name": "CA1.RU01",
									"children": [],
									"size": "468",
									"weight": 0,
									"defects": []
								},
								{
									"name": "CT0075",
									"children": [],
									"size": "459",
									"weight": 0,
									"defects": []
								},
								{
									"name": "CA2.RU01",
									"children": [],
									"size": "455",
									"weight": 0,
									"defects": []
								},
								{
									"name": "CRS344",
									"children": [],
									"size": "432",
									"weight": 0,
									"defects": []
								},
								{
									"name": "CT0083",
									"children": [],
									"size": "430",
									"weight": 0,
									"defects": []
								},
								{
									"name": "CRS824",
									"children": [],
									"size": "424",
									"weight": 0,
									"defects": []
								},
								{
									"name": "CRS295",
									"children": [],
									"size": "412",
									"weight": 0.18181818181818182,
									"defects": [
										{
											"job": "253138",
											"incident": 1002392,
											"description": "INC-1002392: SGSS - RNQ1022 - This event is closed. Referential constraint error on file CRSEXT (C G D F).",
											"foundInVersion": "",
											"dateRequested": "20161116"
										},
										{
											"job": "253289",
											"incident": 1002444,
											"description": ": Archiving FSEP Messages",
											"foundInVersion": "",
											"dateRequested": "20161123"
										}
									],
									"count": 2
								},
								{
									"name": "CRS348",
									"children": [],
									"size": "411",
									"weight": 0,
									"defects": []
								},
								{
									"name": "CRS249",
									"children": [],
									"size": "409",
									"weight": 0,
									"defects": []
								},
								{
									"name": "CRS153",
									"children": [],
									"size": "403",
									"weight": 0,
									"defects": []
								},
								{
									"name": "CRS337",
									"children": [],
									"size": "390",
									"weight": 0,
									"defects": []
								},
								{
									"name": "INT219",
									"children": [],
									"size": "382",
									"weight": 0,
									"defects": []
								},
								{
									"name": "CT0204",
									"children": [],
									"size": "366",
									"weight": 0,
									"defects": []
								},
								{
									"name": "CRS143",
									"children": [],
									"size": "353",
									"weight": 0,
									"defects": []
								},
								{
									"name": "CRS900",
									"children": [],
									"size": "348",
									"weight": 0,
									"defects": []
								},
								{
									"name": "CRS341",
									"children": [],
									"size": "345",
									"weight": 0,
									"defects": []
								},
								{
									"name": "CRS435",
									"children": [],
									"size": "338",
									"weight": 0,
									"defects": []
								},
								{
									"name": "CRN704",
									"children": [],
									"size": "336",
									"weight": 0.18181818181818182,
									"defects": [
										{
											"job": "248048",
											"incident": 1000282,
											"description": "QI Bookcost issue",
											"foundInVersion": "F154",
											"dateRequested": "20160321"
										},
										{
											"job": "253031",
											"incident": 1002349,
											"description": "INC-1002349: Nominee Discrepancies posting Failure",
											"foundInVersion": "",
											"dateRequested": "20161110"
										}
									],
									"count": 2
								},
								{
									"name": "CRS120",
									"children": [],
									"size": "336",
									"weight": 0,
									"defects": []
								},
								{
									"name": "CA2.1000",
									"children": [],
									"size": "307",
									"weight": 0,
									"defects": []
								},
								{
									"name": "CA1.1000",
									"children": [],
									"size": "301",
									"weight": 0,
									"defects": []
								},
								{
									"name": "CT0066",
									"children": [],
									"size": "297",
									"weight": 0,
									"defects": []
								},
								{
									"name": "CT0210",
									"children": [],
									"size": "279",
									"weight": 0,
									"defects": []
								},
								{
									"name": "CRS144",
									"children": [],
									"size": "276",
									"weight": 0,
									"defects": []
								},
								{
									"name": "BLP002",
									"children": [],
									"size": "265",
									"weight": 0,
									"defects": []
								},
								{
									"name": "CT0102",
									"children": [],
									"size": "262",
									"weight": 0,
									"defects": []
								},
								{
									"name": "CT0214",
									"children": [],
									"size": "260",
									"weight": 0,
									"defects": []
								},
								{
									"name": "CT0009",
									"children": [],
									"size": "255",
									"weight": 0,
									"defects": []
								},
								{
									"name": "CT0085",
									"children": [],
									"size": "253",
									"weight": 0,
									"defects": []
								},
								{
									"name": "CT0084",
									"children": [],
									"size": "245",
									"weight": 0,
									"defects": []
								},
								{
									"name": "CA1#AL01",
									"children": [],
									"size": "238",
									"weight": 0,
									"defects": []
								},
								{
									"name": "CTATRP",
									"children": [],
									"size": "233",
									"weight": 0,
									"defects": []
								},
								{
									"name": "CRS146",
									"children": [],
									"size": "229",
									"weight": 0,
									"defects": []
								},
								{
									"name": "CA1.BL01",
									"children": [],
									"size": "220",
									"weight": 0,
									"defects": []
								},
								{
									"name": "CA2.BL01",
									"children": [],
									"size": "209",
									"weight": 0,
									"defects": []
								},
								{
									"name": "CA2#AUTH",
									"children": [],
									"size": "202",
									"weight": 0,
									"defects": []
								},
								{
									"name": "CA1.RE01",
									"children": [],
									"size": "201",
									"weight": 0,
									"defects": []
								},
								{
									"name": "CA2.RE01",
									"children": [],
									"size": "201",
									"weight": 0,
									"defects": []
								},
								{
									"name": "CA1#AUTH",
									"children": [],
									"size": "200",
									"weight": 0,
									"defects": []
								},
								{
									"name": "CRS664",
									"children": [],
									"size": "182",
									"weight": 0,
									"defects": []
								},
								{
									"name": "CRS922",
									"children": [],
									"size": "155",
									"weight": 0,
									"defects": []
								},
								{
									"name": "CA2.MN01",
									"children": [],
									"size": "138",
									"weight": 0,
									"defects": []
								},
								{
									"name": "NJP002",
									"children": [],
									"size": "135",
									"weight": 0,
									"defects": []
								},
								{
									"name": "CA1.MN01",
									"children": [],
									"size": "134",
									"weight": 0,
									"defects": []
								},
								{
									"name": "CRS721",
									"children": [],
									"size": "133",
									"weight": 0,
									"defects": []
								},
								{
									"name": "BLP001",
									"children": [],
									"size": "128",
									"weight": 0,
									"defects": []
								},
								{
									"name": "CA1.NOTES",
									"children": [],
									"size": "122",
									"weight": 0,
									"defects": []
								},
								{
									"name": "CA2.NOTES",
									"children": [],
									"size": "122",
									"weight": 0,
									"defects": []
								},
								{
									"name": "NJP001",
									"children": [],
									"size": "119",
									"weight": 0,
									"defects": []
								},
								{
									"name": "CRS968",
									"children": [],
									"size": "118",
									"weight": 0,
									"defects": []
								},
								{
									"name": "CRS366",
									"children": [],
									"size": "108",
									"weight": 0,
									"defects": []
								},
								{
									"name": "EMX031",
									"children": [],
									"size": "104",
									"weight": 0,
									"defects": []
								},
								{
									"name": "EMP010",
									"children": [],
									"size": "88",
									"weight": 0,
									"defects": []
								},
								{
									"name": "CA1#DIV01",
									"children": [],
									"size": "87",
									"weight": 0,
									"defects": []
								},
								{
									"name": "CA2#DIV01",
									"children": [],
									"size": "87",
									"weight": 0,
									"defects": []
								},
								{
									"name": "BBH004",
									"children": [],
									"size": "73",
									"weight": 0,
									"defects": []
								},
								{
									"name": "CRS395",
									"children": [],
									"size": "70",
									"weight": 0,
									"defects": []
								},
								{
									"name": "JMM662A",
									"children": [],
									"size": "60",
									"weight": 0,
									"defects": []
								},
								{
									"name": "CRS720",
									"children": [],
									"size": "55",
									"weight": 0,
									"defects": []
								},
								{
									"name": "JMM662B",
									"children": [],
									"size": "55",
									"weight": 0,
									"defects": []
								},
								{
									"name": "CRS091",
									"children": [],
									"size": "46",
									"weight": 0,
									"defects": []
								},
								{
									"name": "CB.STFAGT",
									"children": [],
									"size": "43",
									"weight": 0,
									"defects": []
								},
								{
									"name": "CB.STFAGT3",
									"children": [],
									"size": "41",
									"weight": 0,
									"defects": []
								},
								{
									"name": "CA1@FS01",
									"children": [],
									"size": "13",
									"weight": 0,
									"defects": []
								},
								{
									"name": "CA2@ALTAPI",
									"children": [],
									"size": "4",
									"weight": 0,
									"defects": []
								},
								{
									"name": "CA2@FS01",
									"children": [],
									"size": "4",
									"weight": 0,
									"defects": []
								},
								{
									"name": "FSM007",
									"children": [],
									"size": "823",
									"weight": 0,
									"defects": []
								},
								{
									"name": "FSM020",
									"children": [],
									"size": "758",
									"weight": 0,
									"defects": []
								},
								{
									"name": "CRS060",
									"children": [],
									"size": "623",
									"weight": 0,
									"defects": []
								},
								{
									"name": "CRS417",
									"children": [],
									"size": "445",
									"weight": 0,
									"defects": []
								},
								{
									"name": "CRS459",
									"children": [],
									"size": "430",
									"weight": 0,
									"defects": []
								},
								{
									"name": "CT0076",
									"children": [],
									"size": "244",
									"weight": 0,
									"defects": []
								},
								{
									"name": "CT0079",
									"children": [],
									"size": "233",
									"weight": 0,
									"defects": []
								},
								{
									"name": "CT0077",
									"children": [],
									"size": "231",
									"weight": 0,
									"defects": []
								},
								{
									"name": "CT0078",
									"children": [],
									"size": "228",
									"weight": 0,
									"defects": []
								},
								{
									"name": "CT0086",
									"children": [],
									"size": "226",
									"weight": 0,
									"defects": []
								},
								{
									"name": "CRS433",
									"children": [],
									"size": "174",
									"weight": 0,
									"defects": []
								},
								{
									"name": "CRS287",
									"children": [],
									"size": "151",
									"weight": 0,
									"defects": []
								},
								{
									"name": "CRS203",
									"children": [],
									"size": "110",
									"weight": 0,
									"defects": []
								},
								{
									"name": "CRS251",
									"children": [],
									"size": "99",
									"weight": 0,
									"defects": []
								},
								{
									"name": "CRS469",
									"children": [],
									"size": "94",
									"weight": 0,
									"defects": []
								},
								{
									"name": "CRS063",
									"children": [],
									"size": "40",
									"weight": 0,
									"defects": []
								},
								{
									"name": "CRSOPRD",
									"children": [],
									"size": "33",
									"weight": 0,
									"defects": []
								},
								{
									"name": "JMM662CLR",
									"children": [],
									"size": "20",
									"weight": 0,
									"defects": []
								}
							]
						},
						{
							"name": "CLP/CLLE",
							"children": [
								{
									"name": "CRS365CL",
									"children": [],
									"size": "249",
									"weight": 0,
									"defects": []
								},
								{
									"name": "CA2#CL01",
									"children": [],
									"size": "163",
									"weight": 0,
									"defects": []
								},
								{
									"name": "CRN700CL",
									"children": [],
									"size": "160",
									"weight": 0,
									"defects": []
								},
								{
									"name": "CRS687CL",
									"children": [],
									"size": "75",
									"weight": 0,
									"defects": []
								},
								{
									"name": "CRS470CL",
									"children": [],
									"size": "68",
									"weight": 0,
									"defects": []
								},
								{
									"name": "CRS130CL",
									"children": [],
									"size": "63",
									"weight": 0,
									"defects": []
								},
								{
									"name": "CRN704CL",
									"children": [],
									"size": "62",
									"weight": 0,
									"defects": []
								},
								{
									"name": "CRS730CL",
									"children": [],
									"size": "59",
									"weight": 0,
									"defects": []
								},
								{
									"name": "CRS435CL",
									"children": [],
									"size": "54",
									"weight": 0,
									"defects": []
								},
								{
									"name": "BBH005CL",
									"children": [],
									"size": "53",
									"weight": 0,
									"defects": []
								},
								{
									"name": "CRN438.03",
									"children": [],
									"size": "45",
									"weight": 0,
									"defects": []
								},
								{
									"name": "DIR003CL",
									"children": [],
									"size": "38",
									"weight": 0,
									"defects": []
								},
								{
									"name": "INT218CL",
									"children": [],
									"size": "38",
									"weight": 0,
									"defects": []
								},
								{
									"name": "CRN701CL",
									"children": [],
									"size": "36",
									"weight": 0,
									"defects": []
								},
								{
									"name": "DIR001CL",
									"children": [],
									"size": "35",
									"weight": 0,
									"defects": []
								},
								{
									"name": "INT219CL",
									"children": [],
									"size": "32",
									"weight": 0,
									"defects": []
								},
								{
									"name": "CRS966CL",
									"children": [],
									"size": "30",
									"weight": 0,
									"defects": []
								},
								{
									"name": "CSVIMPORT",
									"children": [],
									"size": "212",
									"weight": 0,
									"defects": []
								},
								{
									"name": "CA1#CL01",
									"children": [],
									"size": "162",
									"weight": 0,
									"defects": []
								},
								{
									"name": "CRS930CL",
									"children": [],
									"size": "120",
									"weight": 0,
									"defects": []
								},
								{
									"name": "FIX329CL",
									"children": [],
									"size": "117",
									"weight": 0,
									"defects": []
								},
								{
									"name": "CRN437CL",
									"children": [],
									"size": "90",
									"weight": 0,
									"defects": []
								},
								{
									"name": "FSM004CL",
									"children": [],
									"size": "84",
									"weight": 0,
									"defects": []
								},
								{
									"name": "CRN438CL",
									"children": [],
									"size": "80",
									"weight": 0,
									"defects": []
								},
								{
									"name": "CRS249CL",
									"children": [],
									"size": "57",
									"weight": 0,
									"defects": []
								},
								{
									"name": "CRS348CL",
									"children": [],
									"size": "57",
									"weight": 0,
									"defects": []
								},
								{
									"name": "CRS434CL",
									"children": [],
									"size": "57",
									"weight": 0,
									"defects": []
								},
								{
									"name": "FSM007CL",
									"children": [],
									"size": "55",
									"weight": 0,
									"defects": []
								},
								{
									"name": "FSM020CL",
									"children": [],
									"size": "52",
									"weight": 0,
									"defects": []
								},
								{
									"name": "CRS140CL",
									"children": [],
									"size": "50",
									"weight": 0,
									"defects": []
								},
								{
									"name": "CRS366CL",
									"children": [],
									"size": "50",
									"weight": 0,
									"defects": []
								},
								{
									"name": "CRS824CL",
									"children": [],
									"size": "49",
									"weight": 0,
									"defects": []
								},
								{
									"name": "CRS279CL",
									"children": [],
									"size": "46",
									"weight": 0,
									"defects": []
								},
								{
									"name": "BLP001CL",
									"children": [],
									"size": "45",
									"weight": 0,
									"defects": []
								},
								{
									"name": "CRS091CL",
									"children": [],
									"size": "44",
									"weight": 0,
									"defects": []
								},
								{
									"name": "CRS120CL",
									"children": [],
									"size": "42",
									"weight": 0,
									"defects": []
								},
								{
									"name": "CRS341CL",
									"children": [],
									"size": "41",
									"weight": 0,
									"defects": []
								},
								{
									"name": "ENDMSG",
									"children": [],
									"size": "40",
									"weight": 0,
									"defects": []
								},
								{
									"name": "CRS146CL",
									"children": [],
									"size": "39",
									"weight": 0,
									"defects": []
								},
								{
									"name": "CRS044CL",
									"children": [],
									"size": "38",
									"weight": 0,
									"defects": []
								},
								{
									"name": "CRS063CL",
									"children": [],
									"size": "37",
									"weight": 0,
									"defects": []
								},
								{
									"name": "CRS920CL",
									"children": [],
									"size": "37",
									"weight": 0,
									"defects": []
								},
								{
									"name": "OPENTRANS",
									"children": [],
									"size": "37",
									"weight": 0,
									"defects": []
								},
								{
									"name": "CRS336CL",
									"children": [],
									"size": "35",
									"weight": 0,
									"defects": []
								},
								{
									"name": "CRS153CL",
									"children": [],
									"size": "34",
									"weight": 0,
									"defects": []
								},
								{
									"name": "JMM662CL",
									"children": [],
									"size": "34",
									"weight": 0,
									"defects": []
								},
								{
									"name": "CRS820CL",
									"children": [],
									"size": "32",
									"weight": 0,
									"defects": []
								},
								{
									"name": "CRS370CL",
									"children": [],
									"size": "30",
									"weight": 0,
									"defects": []
								},
								{
									"name": "CRS551CL",
									"children": [],
									"size": "30",
									"weight": 0,
									"defects": []
								},
								{
									"name": "CRS433CL",
									"children": [],
									"size": "29",
									"weight": 0,
									"defects": []
								},
								{
									"name": "CRS032CL",
									"children": [],
									"size": "27",
									"weight": 0,
									"defects": []
								},
								{
									"name": "CRS337CL",
									"children": [],
									"size": "26",
									"weight": 0,
									"defects": []
								},
								{
									"name": "CRS720CL",
									"children": [],
									"size": "25",
									"weight": 0,
									"defects": []
								},
								{
									"name": "CRS459CL",
									"children": [],
									"size": "24",
									"weight": 0,
									"defects": []
								}
							]
						}
					]
				},
				{
					"name": "*FILE",
					"children": [
						{
							"name": "DSPF",
							"children": [
								{
									"name": "CT0075FM",
									"children": [],
									"size": "604",
									"weight": 0,
									"defects": []
								},
								{
									"name": "CRS032FM",
									"children": [],
									"size": "574",
									"weight": 0,
									"defects": []
								},
								{
									"name": "FSM004FM",
									"children": [],
									"size": "507",
									"weight": 0,
									"defects": []
								},
								{
									"name": "EMXVREFM",
									"children": [],
									"size": "494",
									"weight": 0,
									"defects": []
								},
								{
									"name": "CT0204FM",
									"children": [],
									"size": "486",
									"weight": 0,
									"defects": []
								},
								{
									"name": "CT0083FM",
									"children": [],
									"size": "409",
									"weight": 0,
									"defects": []
								},
								{
									"name": "CRS820FM",
									"children": [],
									"size": "302",
									"weight": 0,
									"defects": []
								},
								{
									"name": "FSM007FM",
									"children": [],
									"size": "296",
									"weight": 0,
									"defects": []
								},
								{
									"name": "CRN438FM",
									"children": [],
									"size": "294",
									"weight": 0,
									"defects": []
								},
								{
									"name": "CT0102FM",
									"children": [],
									"size": "266",
									"weight": 0,
									"defects": []
								},
								{
									"name": "CRS044FM",
									"children": [],
									"size": "259",
									"weight": 0,
									"defects": []
								},
								{
									"name": "INT218FM",
									"children": [],
									"size": "258",
									"weight": 0,
									"defects": []
								},
								{
									"name": "CRS130FM",
									"children": [],
									"size": "236",
									"weight": 0,
									"defects": []
								},
								{
									"name": "CRS171FM",
									"children": [],
									"size": "229",
									"weight": 0,
									"defects": []
								},
								{
									"name": "CRS370FM",
									"children": [],
									"size": "220",
									"weight": 0,
									"defects": []
								},
								{
									"name": "CT0085FM",
									"children": [],
									"size": "220",
									"weight": 0,
									"defects": []
								},
								{
									"name": "CRN700FM",
									"children": [],
									"size": "211",
									"weight": 0,
									"defects": []
								},
								{
									"name": "CT0066FM",
									"children": [],
									"size": "211",
									"weight": 0,
									"defects": []
								},
								{
									"name": "CRN701FM",
									"children": [],
									"size": "202",
									"weight": 0,
									"defects": []
								},
								{
									"name": "CRS279FM",
									"children": [],
									"size": "202",
									"weight": 0,
									"defects": []
								},
								{
									"name": "FSM020FM",
									"children": [],
									"size": "199",
									"weight": 0,
									"defects": []
								},
								{
									"name": "CRS249FM",
									"children": [],
									"size": "192",
									"weight": 0,
									"defects": []
								},
								{
									"name": "CT0210FM",
									"children": [],
									"size": "188",
									"weight": 0,
									"defects": []
								},
								{
									"name": "CRS365FM",
									"children": [],
									"size": "181",
									"weight": 0,
									"defects": []
								},
								{
									"name": "CRS264FM",
									"children": [],
									"size": "179",
									"weight": 0,
									"defects": []
								},
								{
									"name": "CRS551FM",
									"children": [],
									"size": "179",
									"weight": 0,
									"defects": []
								},
								{
									"name": "CRS052FM",
									"children": [],
									"size": "178",
									"weight": 0,
									"defects": []
								},
								{
									"name": "CRS153FM",
									"children": [],
									"size": "178",
									"weight": 0,
									"defects": []
								},
								{
									"name": "CRS337FM",
									"children": [],
									"size": "177",
									"weight": 0,
									"defects": []
								},
								{
									"name": "CT0009FM",
									"children": [],
									"size": "176",
									"weight": 0,
									"defects": []
								},
								{
									"name": "EMXMACFM",
									"children": [],
									"size": "164",
									"weight": 0,
									"defects": []
								},
								{
									"name": "INT219FM",
									"children": [],
									"size": "157",
									"weight": 0,
									"defects": []
								},
								{
									"name": "CRS920FM",
									"children": [],
									"size": "151",
									"weight": 0,
									"defects": []
								},
								{
									"name": "CRS966FM",
									"children": [],
									"size": "151",
									"weight": 0,
									"defects": []
								},
								{
									"name": "CRS070FM",
									"children": [],
									"size": "149",
									"weight": 0,
									"defects": []
								},
								{
									"name": "CRS144FM",
									"children": [],
									"size": "132",
									"weight": 0,
									"defects": []
								},
								{
									"name": "CT0214FM",
									"children": [],
									"size": "132",
									"weight": 0,
									"defects": []
								},
								{
									"name": "CRS459FM",
									"children": [],
									"size": "128",
									"weight": 0,
									"defects": []
								},
								{
									"name": "CT0079FM",
									"children": [],
									"size": "115",
									"weight": 0,
									"defects": []
								},
								{
									"name": "CT0077FM",
									"children": [],
									"size": "109",
									"weight": 0,
									"defects": []
								},
								{
									"name": "CTATRPFM",
									"children": [],
									"size": "106",
									"weight": 0,
									"defects": []
								},
								{
									"name": "CRS336FM",
									"children": [],
									"size": "105",
									"weight": 0,
									"defects": []
								},
								{
									"name": "CT0084FM",
									"children": [],
									"size": "100",
									"weight": 0,
									"defects": []
								},
								{
									"name": "CRS348FM",
									"children": [],
									"size": "97",
									"weight": 0,
									"defects": []
								},
								{
									"name": "CT0076FM",
									"children": [],
									"size": "89",
									"weight": 0,
									"defects": []
								},
								{
									"name": "CT0078FM",
									"children": [],
									"size": "88",
									"weight": 0,
									"defects": []
								},
								{
									"name": "CRS287FM",
									"children": [],
									"size": "82",
									"weight": 0,
									"defects": []
								},
								{
									"name": "CRS664FM",
									"children": [],
									"size": "77",
									"weight": 0,
									"defects": []
								},
								{
									"name": "CT0086FM",
									"children": [],
									"size": "77",
									"weight": 0,
									"defects": []
								},
								{
									"name": "CRS922FM",
									"children": [],
									"size": "75",
									"weight": 0,
									"defects": []
								},
								{
									"name": "NJP001FM",
									"children": [],
									"size": "64",
									"weight": 0,
									"defects": []
								},
								{
									"name": "CRS469FM",
									"children": [],
									"size": "46",
									"weight": 0,
									"defects": []
								},
								{
									"name": "CRS470FM",
									"children": [],
									"size": "42",
									"weight": 0,
									"defects": []
								},
								{
									"name": "CRS120FM",
									"children": [],
									"size": "38",
									"weight": 0,
									"defects": []
								},
								{
									"name": "INS500FM",
									"children": [],
									"size": "34",
									"weight": 0,
									"defects": []
								}
							]
						},
						{
							"name": "PRTF",
							"children": [
								{
									"name": "CRN437PR",
									"children": [],
									"size": "400",
									"weight": 0,
									"defects": []
								},
								{
									"name": "CRS730PR",
									"children": [],
									"size": "220",
									"weight": 0,
									"defects": []
								},
								{
									"name": "CRN700PR",
									"children": [],
									"size": "112",
									"weight": 0,
									"defects": []
								},
								{
									"name": "BLP001PR",
									"children": [],
									"size": "58",
									"weight": 0,
									"defects": []
								}
							]
						}
					]
				},
				{
					"name": "*CMD",
					"children": [
						{
							"name": "CMD",
							"children": [
								{
									"name": "CRN700CL",
									"children": [],
									"size": "80",
									"weight": 0,
									"defects": []
								},
								{
									"name": "CRS687CL",
									"children": [],
									"size": "67",
									"weight": 0,
									"defects": []
								},
								{
									"name": "CRS930CL",
									"children": [],
									"size": "61",
									"weight": 0,
									"defects": []
								},
								{
									"name": "CRN437CL",
									"children": [],
									"size": "59",
									"weight": 0,
									"defects": []
								},
								{
									"name": "CRS730CL",
									"children": [],
									"size": "54",
									"weight": 0,
									"defects": []
								},
								{
									"name": "CRS365CL",
									"children": [],
									"size": "51",
									"weight": 0,
									"defects": []
								},
								{
									"name": "FIX329CL",
									"children": [],
									"size": "50",
									"weight": 0,
									"defects": []
								},
								{
									"name": "CRS130CL",
									"children": [],
									"size": "42",
									"weight": 0,
									"defects": []
								},
								{
									"name": "CSVIMPORT",
									"children": [],
									"size": "41",
									"weight": 0,
									"defects": []
								},
								{
									"name": "FSM020CL",
									"children": [],
									"size": "40",
									"weight": 0,
									"defects": []
								},
								{
									"name": "FSM004CL",
									"children": [],
									"size": "38",
									"weight": 0,
									"defects": []
								},
								{
									"name": "OPENTRANS",
									"children": [],
									"size": "36",
									"weight": 0,
									"defects": []
								},
								{
									"name": "INT218CL",
									"children": [],
									"size": "34",
									"weight": 0,
									"defects": []
								},
								{
									"name": "CVFCSVCL",
									"children": [],
									"size": "32",
									"weight": 0,
									"defects": []
								},
								{
									"name": "CRS120CL",
									"children": [],
									"size": "31",
									"weight": 0,
									"defects": []
								},
								{
									"name": "CRS146CL",
									"children": [],
									"size": "30",
									"weight": 0,
									"defects": []
								},
								{
									"name": "CRS348CL",
									"children": [],
									"size": "30",
									"weight": 0,
									"defects": []
								},
								{
									"name": "CRN701CL",
									"children": [],
									"size": "29",
									"weight": 0,
									"defects": []
								},
								{
									"name": "CRS435CL",
									"children": [],
									"size": "28",
									"weight": 0,
									"defects": []
								},
								{
									"name": "CRS433CL",
									"children": [],
									"size": "26",
									"weight": 0,
									"defects": []
								},
								{
									"name": "INT219CL",
									"children": [],
									"size": "26",
									"weight": 0,
									"defects": []
								},
								{
									"name": "CRS336CL",
									"children": [],
									"size": "25",
									"weight": 0,
									"defects": []
								},
								{
									"name": "FSM007CL",
									"children": [],
									"size": "25",
									"weight": 0,
									"defects": []
								},
								{
									"name": "CRS153CL",
									"children": [],
									"size": "24",
									"weight": 0,
									"defects": []
								},
								{
									"name": "CRS249CL",
									"children": [],
									"size": "24",
									"weight": 0,
									"defects": []
								},
								{
									"name": "CRS820CL",
									"children": [],
									"size": "24",
									"weight": 0,
									"defects": []
								},
								{
									"name": "CRS044CL",
									"children": [],
									"size": "23",
									"weight": 0,
									"defects": []
								},
								{
									"name": "CRS091CL",
									"children": [],
									"size": "23",
									"weight": 0,
									"defects": []
								},
								{
									"name": "CRS337CL",
									"children": [],
									"size": "23",
									"weight": 0,
									"defects": []
								},
								{
									"name": "CRS366CL",
									"children": [],
									"size": "23",
									"weight": 0,
									"defects": []
								},
								{
									"name": "CRS370CL",
									"children": [],
									"size": "23",
									"weight": 0,
									"defects": []
								},
								{
									"name": "CRS720CL",
									"children": [],
									"size": "23",
									"weight": 0,
									"defects": []
								},
								{
									"name": "CRS920CL",
									"children": [],
									"size": "23",
									"weight": 0,
									"defects": []
								},
								{
									"name": "CRN438CL",
									"children": [],
									"size": "22",
									"weight": 0,
									"defects": []
								},
								{
									"name": "CRS063CL",
									"children": [],
									"size": "21",
									"weight": 0,
									"defects": []
								},
								{
									"name": "CRS140CL",
									"children": [],
									"size": "21",
									"weight": 0,
									"defects": []
								},
								{
									"name": "CRS551CL",
									"children": [],
									"size": "21",
									"weight": 0,
									"defects": []
								},
								{
									"name": "CRS966CL",
									"children": [],
									"size": "21",
									"weight": 0,
									"defects": []
								},
								{
									"name": "CRS032CL",
									"children": [],
									"size": "20",
									"weight": 0,
									"defects": []
								},
								{
									"name": "CRS459CL",
									"children": [],
									"size": "14",
									"weight": 0,
									"defects": []
								},
								{
									"name": "JMM662CL",
									"children": [],
									"size": "13",
									"weight": 0,
									"defects": []
								}
							]
						}
					]
				}
			]
		},
		{
			"name": "XXX",
			"children": [
				{
					"name": "*PGM",
					"children": [
						{
							"name": "RPG",
							"children": [
								{
									"name": "CRS230",
									"children": [],
									"size": "2201",
									"weight": 0,
									"defects": []
								},
								{
									"name": "TDW111",
									"children": [],
									"size": "1699",
									"weight": 0,
									"defects": []
								},
								{
									"name": "REG014",
									"children": [],
									"size": "1512",
									"weight": 0,
									"defects": []
								},
								{
									"name": "CRS285",
									"children": [],
									"size": "1307",
									"weight": 0.09090909090909091,
									"defects": [
										{
											"job": "249921",
											"incident": 1001089,
											"description": "CREST stock balance does not appear on CRS230 report",
											"foundInVersion": "",
											"dateRequested": "20160621"
										}
									],
									"count": 1
								},
								{
									"name": "REG009",
									"children": [],
									"size": "1031",
									"weight": 0,
									"defects": []
								},
								{
									"name": "TDW171",
									"children": [],
									"size": "1001",
									"weight": 0,
									"defects": []
								},
								{
									"name": "CRS033",
									"children": [],
									"size": "801",
									"weight": 0,
									"defects": []
								},
								{
									"name": "TDW174",
									"children": [],
									"size": "743",
									"weight": 0,
									"defects": []
								},
								{
									"name": "NNN021",
									"children": [],
									"size": "733",
									"weight": 0,
									"defects": []
								},
								{
									"name": "NNN015",
									"children": [],
									"size": "663",
									"weight": 0,
									"defects": []
								},
								{
									"name": "PRN005",
									"children": [],
									"size": "631",
									"weight": 0,
									"defects": []
								},
								{
									"name": "TDW511",
									"children": [],
									"size": "581",
									"weight": 0,
									"defects": []
								},
								{
									"name": "BRO083",
									"children": [],
									"size": "532",
									"weight": 0,
									"defects": []
								},
								{
									"name": "BRO046",
									"children": [],
									"size": "465",
									"weight": 0,
									"defects": []
								},
								{
									"name": "BRO079",
									"children": [],
									"size": "455",
									"weight": 0,
									"defects": []
								},
								{
									"name": "MJR424REQ",
									"children": [],
									"size": "397",
									"weight": 0,
									"defects": []
								},
								{
									"name": "NNN057",
									"children": [],
									"size": "393",
									"weight": 0,
									"defects": []
								},
								{
									"name": "CRS210",
									"children": [],
									"size": "382",
									"weight": 0,
									"defects": []
								},
								{
									"name": "BRO044",
									"children": [],
									"size": "353",
									"weight": 0,
									"defects": []
								},
								{
									"name": "CRN612",
									"children": [],
									"size": "347",
									"weight": 0,
									"defects": []
								},
								{
									"name": "CRS180",
									"children": [],
									"size": "331",
									"weight": 0,
									"defects": []
								},
								{
									"name": "BRO044D",
									"children": [],
									"size": "312",
									"weight": 0,
									"defects": []
								},
								{
									"name": "BRO088",
									"children": [],
									"size": "265",
									"weight": 0,
									"defects": []
								},
								{
									"name": "TDBF99",
									"children": [],
									"size": "244",
									"weight": 0,
									"defects": []
								},
								{
									"name": "VALSRN",
									"children": [],
									"size": "241",
									"weight": 0,
									"defects": []
								},
								{
									"name": "BRO030",
									"children": [],
									"size": "238",
									"weight": 0,
									"defects": []
								},
								{
									"name": "CRS156",
									"children": [],
									"size": "209",
									"weight": 0,
									"defects": []
								},
								{
									"name": "BRO045",
									"children": [],
									"size": "205",
									"weight": 0,
									"defects": []
								},
								{
									"name": "NOM001",
									"children": [],
									"size": "195",
									"weight": 0,
									"defects": []
								},
								{
									"name": "REG011",
									"children": [],
									"size": "163",
									"weight": 0,
									"defects": []
								},
								{
									"name": "GID048",
									"children": [],
									"size": "159",
									"weight": 0,
									"defects": []
								},
								{
									"name": "AMC078",
									"children": [],
									"size": "158",
									"weight": 0,
									"defects": []
								},
								{
									"name": "REG006SUM",
									"children": [],
									"size": "148",
									"weight": 0,
									"defects": []
								},
								{
									"name": "REG206SUM",
									"children": [],
									"size": "135",
									"weight": 0,
									"defects": []
								},
								{
									"name": "BRO025",
									"children": [],
									"size": "118",
									"weight": 0,
									"defects": []
								},
								{
									"name": "DEREQ",
									"children": [],
									"size": "110",
									"weight": 0,
									"defects": []
								},
								{
									"name": "TDW521",
									"children": [],
									"size": "97",
									"weight": 0,
									"defects": []
								},
								{
									"name": "REG206CPY",
									"children": [],
									"size": "86",
									"weight": 0,
									"defects": []
								},
								{
									"name": "NNN156",
									"children": [],
									"size": "65",
									"weight": 0,
									"defects": []
								},
								{
									"name": "REG006S",
									"children": [],
									"size": "54",
									"weight": 0,
									"defects": []
								},
								{
									"name": "REG020",
									"children": [],
									"size": "46",
									"weight": 0,
									"defects": []
								},
								{
									"name": "SMC010",
									"children": [],
									"size": "44",
									"weight": 0,
									"defects": []
								},
								{
									"name": "NOM001PR",
									"children": [],
									"size": "27",
									"weight": 0,
									"defects": []
								},
								{
									"name": "MJR424",
									"children": [],
									"size": "1523",
									"weight": 0,
									"defects": []
								},
								{
									"name": "CRN607",
									"children": [],
									"size": "578",
									"weight": 0,
									"defects": []
								},
								{
									"name": "POR110",
									"children": [],
									"size": "292",
									"weight": 0,
									"defects": []
								},
								{
									"name": "JMM564",
									"children": [],
									"size": "275",
									"weight": 0,
									"defects": []
								},
								{
									"name": "SAR003",
									"children": [],
									"size": "117",
									"weight": 0,
									"defects": []
								},
								{
									"name": "BRO242",
									"children": [],
									"size": "104",
									"weight": 0,
									"defects": []
								},
								{
									"name": "WHOSDAD",
									"children": [],
									"size": "62",
									"weight": 0,
									"defects": []
								},
								{
									"name": "TSB.NOM001",
									"children": [],
									"size": "473",
									"weight": 0,
									"defects": []
								},
								{
									"name": "BRO081SQ",
									"children": [],
									"size": "69",
									"weight": 0,
									"defects": []
								}
							]
						},
						{
							"name": "CLP/CLLE",
							"children": [
								{
									"name": "REG014TFCL",
									"children": [],
									"size": "288",
									"weight": 0,
									"defects": []
								},
								{
									"name": "CRS230CL",
									"children": [],
									"size": "148",
									"weight": 0,
									"defects": []
								},
								{
									"name": "NNN021CL",
									"children": [],
									"size": "137",
									"weight": 0,
									"defects": []
								},
								{
									"name": "BRO044CL",
									"children": [],
									"size": "128",
									"weight": 0,
									"defects": []
								},
								{
									"name": "DAYENDCCL",
									"children": [],
									"size": "106",
									"weight": 0,
									"defects": []
								},
								{
									"name": "RSTTSKCL",
									"children": [],
									"size": "104",
									"weight": 0,
									"defects": []
								},
								{
									"name": "TDW111CL",
									"children": [],
									"size": "99",
									"weight": 0,
									"defects": []
								},
								{
									"name": "TDW511CL",
									"children": [],
									"size": "91",
									"weight": 0,
									"defects": []
								},
								{
									"name": "MJR424CL",
									"children": [],
									"size": "88",
									"weight": 0,
									"defects": []
								},
								{
									"name": "REG006GCL",
									"children": [],
									"size": "88",
									"weight": 0,
									"defects": []
								},
								{
									"name": "REG206SCL",
									"children": [],
									"size": "85",
									"weight": 0,
									"defects": []
								},
								{
									"name": "MJR424MAIN",
									"children": [],
									"size": "84",
									"weight": 0,
									"defects": []
								},
								{
									"name": "NNN156CL",
									"children": [],
									"size": "81",
									"weight": 0,
									"defects": []
								},
								{
									"name": "REG006SCL",
									"children": [],
									"size": "81",
									"weight": 0,
									"defects": []
								},
								{
									"name": "JMM386CL",
									"children": [],
									"size": "78",
									"weight": 0,
									"defects": []
								},
								{
									"name": "STRTSKCL",
									"children": [],
									"size": "74",
									"weight": 0,
									"defects": []
								},
								{
									"name": "REG006CL",
									"children": [],
									"size": "63",
									"weight": 0,
									"defects": []
								},
								{
									"name": "REG206CL",
									"children": [],
									"size": "63",
									"weight": 0,
									"defects": []
								},
								{
									"name": "TDBF99CL",
									"children": [],
									"size": "61",
									"weight": 0,
									"defects": []
								},
								{
									"name": "BRO025CL",
									"children": [],
									"size": "59",
									"weight": 0,
									"defects": []
								},
								{
									"name": "JMM666CL",
									"children": [],
									"size": "56",
									"weight": 0,
									"defects": []
								},
								{
									"name": "CRS210CL",
									"children": [],
									"size": "52",
									"weight": 0,
									"defects": []
								},
								{
									"name": "REG206GCL",
									"children": [],
									"size": "52",
									"weight": 0,
									"defects": []
								},
								{
									"name": "CRS111CL",
									"children": [],
									"size": "48",
									"weight": 0,
									"defects": []
								},
								{
									"name": "SAR003CL",
									"children": [],
									"size": "47",
									"weight": 0,
									"defects": []
								},
								{
									"name": "JMM564CL",
									"children": [],
									"size": "46",
									"weight": 0,
									"defects": []
								},
								{
									"name": "GID048CL",
									"children": [],
									"size": "45",
									"weight": 0,
									"defects": []
								},
								{
									"name": "POR110CL",
									"children": [],
									"size": "45",
									"weight": 0,
									"defects": []
								},
								{
									"name": "REG020CL",
									"children": [],
									"size": "45",
									"weight": 0,
									"defects": []
								},
								{
									"name": "BRO242CL",
									"children": [],
									"size": "44",
									"weight": 0,
									"defects": []
								},
								{
									"name": "WHOSDADCL",
									"children": [],
									"size": "41",
									"weight": 0,
									"defects": []
								},
								{
									"name": "JMM564OV",
									"children": [],
									"size": "39",
									"weight": 0,
									"defects": []
								},
								{
									"name": "REG014FTCL",
									"children": [],
									"size": "35",
									"weight": 0,
									"defects": []
								},
								{
									"name": "WKIDSCL",
									"children": [],
									"size": "35",
									"weight": 0,
									"defects": []
								},
								{
									"name": "CRS285CL",
									"children": [],
									"size": "34",
									"weight": 0,
									"defects": []
								},
								{
									"name": "REG011CL",
									"children": [],
									"size": "33",
									"weight": 0,
									"defects": []
								},
								{
									"name": "CRS033CL",
									"children": [],
									"size": "32",
									"weight": 0,
									"defects": []
								},
								{
									"name": "REG014CL",
									"children": [],
									"size": "32",
									"weight": 0,
									"defects": []
								},
								{
									"name": "CRN607CL",
									"children": [],
									"size": "31",
									"weight": 0,
									"defects": []
								},
								{
									"name": "REG009CL",
									"children": [],
									"size": "28",
									"weight": 0,
									"defects": []
								},
								{
									"name": "CRN612CL",
									"children": [],
									"size": "26",
									"weight": 0,
									"defects": []
								},
								{
									"name": "CRS431CL",
									"children": [],
									"size": "26",
									"weight": 0,
									"defects": []
								},
								{
									"name": "CRS156CL",
									"children": [],
									"size": "25",
									"weight": 0,
									"defects": []
								},
								{
									"name": "DAYENDCL",
									"children": [],
									"size": "21",
									"weight": 0,
									"defects": []
								},
								{
									"name": "BRO088CL",
									"children": [],
									"size": "16",
									"weight": 0,
									"defects": []
								},
								{
									"name": "BRO045CL",
									"children": [],
									"size": "110",
									"weight": 0,
									"defects": []
								},
								{
									"name": "BRO046CL",
									"children": [],
									"size": "98",
									"weight": 0,
									"defects": []
								},
								{
									"name": "BRO081CL",
									"children": [],
									"size": "95",
									"weight": 0,
									"defects": []
								},
								{
									"name": "CRS180CL",
									"children": [],
									"size": "50",
									"weight": 0,
									"defects": []
								},
								{
									"name": "TDW521CL",
									"children": [],
									"size": "27",
									"weight": 0,
									"defects": []
								}
							]
						}
					]
				},
				{
					"name": "*FILE",
					"children": [
						{
							"name": "DSPF",
							"children": [
								{
									"name": "CRS285FM",
									"children": [],
									"size": "493",
									"weight": 0,
									"defects": []
								},
								{
									"name": "CRS033FM",
									"children": [],
									"size": "444",
									"weight": 0,
									"defects": []
								},
								{
									"name": "REG009FM",
									"children": [],
									"size": "281",
									"weight": 0,
									"defects": []
								},
								{
									"name": "NNN015FM",
									"children": [],
									"size": "225",
									"weight": 0,
									"defects": []
								},
								{
									"name": "REG014FM",
									"children": [],
									"size": "223",
									"weight": 0,
									"defects": []
								},
								{
									"name": "CRN607FM",
									"children": [],
									"size": "136",
									"weight": 0,
									"defects": []
								},
								{
									"name": "MJR424FM",
									"children": [],
									"size": "122",
									"weight": 0,
									"defects": []
								},
								{
									"name": "DEREQFM",
									"children": [],
									"size": "111",
									"weight": 0,
									"defects": []
								},
								{
									"name": "CRS156FM",
									"children": [],
									"size": "108",
									"weight": 0,
									"defects": []
								},
								{
									"name": "BRO094FM",
									"children": [],
									"size": "99",
									"weight": 0,
									"defects": []
								},
								{
									"name": "JMM564FM",
									"children": [],
									"size": "80",
									"weight": 0,
									"defects": []
								},
								{
									"name": "PRN005FM",
									"children": [],
									"size": "79",
									"weight": 0,
									"defects": []
								},
								{
									"name": "BRO088FM",
									"children": [],
									"size": "68",
									"weight": 0,
									"defects": []
								}
							]
						},
						{
							"name": "PRTF",
							"children": [
								{
									"name": "CRS180O",
									"children": [],
									"size": "51",
									"weight": 0,
									"defects": []
								}
							]
						}
					]
				},
				{
					"name": "*CMD",
					"children": [
						{
							"name": "CMD",
							"children": [
								{
									"name": "CRS230",
									"children": [],
									"size": "96",
									"weight": 0,
									"defects": []
								},
								{
									"name": "TDW111CL",
									"children": [],
									"size": "57",
									"weight": 0,
									"defects": []
								},
								{
									"name": "MJR424",
									"children": [],
									"size": "54",
									"weight": 0,
									"defects": []
								},
								{
									"name": "BRO044",
									"children": [],
									"size": "47",
									"weight": 0,
									"defects": []
								},
								{
									"name": "SAR003CL",
									"children": [],
									"size": "41",
									"weight": 0,
									"defects": []
								},
								{
									"name": "TDBF99CL",
									"children": [],
									"size": "38",
									"weight": 0,
									"defects": []
								},
								{
									"name": "CRS210",
									"children": [],
									"size": "37",
									"weight": 0,
									"defects": []
								},
								{
									"name": "CRS180",
									"children": [],
									"size": "36",
									"weight": 0,
									"defects": []
								},
								{
									"name": "BRO046",
									"children": [],
									"size": "32",
									"weight": 0,
									"defects": []
								},
								{
									"name": "REG006CL",
									"children": [],
									"size": "32",
									"weight": 0,
									"defects": []
								},
								{
									"name": "REG206CL",
									"children": [],
									"size": "32",
									"weight": 0,
									"defects": []
								},
								{
									"name": "BRO045",
									"children": [],
									"size": "30",
									"weight": 0,
									"defects": []
								},
								{
									"name": "TDW511CL",
									"children": [],
									"size": "29",
									"weight": 0,
									"defects": []
								},
								{
									"name": "JMM564",
									"children": [],
									"size": "28",
									"weight": 0,
									"defects": []
								},
								{
									"name": "JMM666",
									"children": [],
									"size": "28",
									"weight": 0,
									"defects": []
								},
								{
									"name": "DAYENDC",
									"children": [],
									"size": "25",
									"weight": 0,
									"defects": []
								},
								{
									"name": "JMM386",
									"children": [],
									"size": "25",
									"weight": 0,
									"defects": []
								},
								{
									"name": "REG011CL",
									"children": [],
									"size": "25",
									"weight": 0,
									"defects": []
								},
								{
									"name": "REG020CL",
									"children": [],
									"size": "25",
									"weight": 0,
									"defects": []
								},
								{
									"name": "CRS156",
									"children": [],
									"size": "24",
									"weight": 0,
									"defects": []
								},
								{
									"name": "WKIDSCL",
									"children": [],
									"size": "23",
									"weight": 0,
									"defects": []
								},
								{
									"name": "WHOSDAD",
									"children": [],
									"size": "22",
									"weight": 0,
									"defects": []
								},
								{
									"name": "REG014CL",
									"children": [],
									"size": "21",
									"weight": 0,
									"defects": []
								},
								{
									"name": "TDW521CL",
									"children": [],
									"size": "21",
									"weight": 0,
									"defects": []
								},
								{
									"name": "CRS285",
									"children": [],
									"size": "20",
									"weight": 0,
									"defects": []
								},
								{
									"name": "REG009CL",
									"children": [],
									"size": "20",
									"weight": 0,
									"defects": []
								},
								{
									"name": "CRN607",
									"children": [],
									"size": "16",
									"weight": 0,
									"defects": []
								},
								{
									"name": "STRTSK",
									"children": [],
									"size": "13",
									"weight": 0,
									"defects": []
								},
								{
									"name": "BRO081",
									"children": [],
									"size": "5",
									"weight": 0,
									"defects": []
								},
								{
									"name": "DAYEND",
									"children": [],
									"size": "4",
									"weight": 0,
									"defects": []
								},
								{
									"name": "BRO025",
									"children": [],
									"size": "1",
									"weight": 0,
									"defects": []
								},
								{
									"name": "BRO088",
									"children": [],
									"size": "1",
									"weight": 0,
									"defects": []
								},
								{
									"name": "BRO094",
									"children": [],
									"size": "1",
									"weight": 0,
									"defects": []
								},
								{
									"name": "BRO192",
									"children": [],
									"size": "1",
									"weight": 0,
									"defects": []
								},
								{
									"name": "NNN021",
									"children": [],
									"size": "1",
									"weight": 0,
									"defects": []
								},
								{
									"name": "POR110",
									"children": [],
									"size": "1",
									"weight": 0,
									"defects": []
								}
							]
						}
					]
				}
			]
		}
	]
}