{
	"name": "DEX",
	"children": [
		{
			"name": "MGI",
			"children": [
				{
					"name": "*FILE",
					"children": [
						{
							"name": "DSPF",
							"children": [
								{
									"name": "RGPR01FM",
									"children": [],
									"size": "3467",
									"weight": 0,
									"defects": []
								},
								{
									"name": "MI005FM",
									"children": [],
									"size": "512",
									"weight": 0,
									"defects": []
								},
								{
									"name": "RG1R01FM",
									"children": [],
									"size": "479",
									"weight": 0,
									"defects": []
								},
								{
									"name": "MI004DFM",
									"children": [],
									"size": "354",
									"weight": 0,
									"defects": []
								},
								{
									"name": "MI003FM",
									"children": [],
									"size": "272",
									"weight": 0,
									"defects": []
								},
								{
									"name": "MI030FM",
									"children": [],
									"size": "243",
									"weight": 0,
									"defects": []
								},
								{
									"name": "MI004HFM",
									"children": [],
									"size": "222",
									"weight": 0,
									"defects": []
								},
								{
									"name": "MI006FM",
									"children": [],
									"size": "186",
									"weight": 0,
									"defects": []
								},
								{
									"name": "MI031FM",
									"children": [],
									"size": "180",
									"weight": 0,
									"defects": []
								},
								{
									"name": "BRI000FM",
									"children": [],
									"size": "176",
									"weight": 0,
									"defects": []
								},
								{
									"name": "MI002FM",
									"children": [],
									"size": "158",
									"weight": 0,
									"defects": []
								},
								{
									"name": "KPI101FM",
									"children": [],
									"size": "132",
									"weight": 0,
									"defects": []
								},
								{
									"name": "RGPSCHFM",
									"children": [],
									"size": "67",
									"weight": 0,
									"defects": []
								}
							]
						},
						{
							"name": "Database",
							"children": [
								{
									"name": "MIFIDHIER",
									"children": [],
									"size": "101",
									"weight": 0,
									"defects": []
								}
							]
						}
					]
				},
				{
					"name": "*PGM",
					"children": [
						{
							"name": "RPG",
							"children": [
								{
									"name": "MI005",
									"children": [],
									"size": "1994",
									"weight": 0,
									"defects": []
								},
								{
									"name": "MI020",
									"children": [],
									"size": "754",
									"weight": 0,
									"defects": []
								},
								{
									"name": "MI022",
									"children": [],
									"size": "717",
									"weight": 0,
									"defects": []
								},
								{
									"name": "MI007",
									"children": [],
									"size": "79",
									"weight": 0,
									"defects": []
								},
								{
									"name": "RGPR01",
									"children": [],
									"size": "1292",
									"weight": 0,
									"defects": []
								},
								{
									"name": "RGPSRTM",
									"children": [],
									"size": "844",
									"weight": 0,
									"defects": []
								},
								{
									"name": "RGPSRTC",
									"children": [],
									"size": "827",
									"weight": 0,
									"defects": []
								},
								{
									"name": "RGPSRTB",
									"children": [],
									"size": "637",
									"weight": 0,
									"defects": []
								},
								{
									"name": "RG1R01",
									"children": [],
									"size": "578",
									"weight": 0,
									"defects": []
								},
								{
									"name": "GARR03",
									"children": [],
									"size": "399",
									"weight": 0,
									"defects": []
								},
								{
									"name": "RGM19T",
									"children": [],
									"size": "273",
									"weight": 0,
									"defects": []
								},
								{
									"name": "RGM21X",
									"children": [],
									"size": "256",
									"weight": 0,
									"defects": []
								},
								{
									"name": "RGM21P",
									"children": [],
									"size": "249",
									"weight": 0,
									"defects": []
								},
								{
									"name": "IUF012",
									"children": [],
									"size": "228",
									"weight": 0,
									"defects": []
								},
								{
									"name": "RGM17T",
									"children": [],
									"size": "196",
									"weight": 0,
									"defects": []
								},
								{
									"name": "RGM12T",
									"children": [],
									"size": "167",
									"weight": 0,
									"defects": []
								},
								{
									"name": "RGPVAL",
									"children": [],
									"size": "147",
									"weight": 0,
									"defects": []
								},
								{
									"name": "RGPSCH",
									"children": [],
									"size": "139",
									"weight": 0,
									"defects": []
								},
								{
									"name": "RGM14T",
									"children": [],
									"size": "133",
									"weight": 0,
									"defects": []
								},
								{
									"name": "RGM13T",
									"children": [],
									"size": "132",
									"weight": 0,
									"defects": []
								},
								{
									"name": "RGM08A",
									"children": [],
									"size": "111",
									"weight": 0,
									"defects": []
								},
								{
									"name": "RGM01A",
									"children": [],
									"size": "107",
									"weight": 0,
									"defects": []
								},
								{
									"name": "CBW036A",
									"children": [],
									"size": "91",
									"weight": 0,
									"defects": []
								},
								{
									"name": "CBW036B",
									"children": [],
									"size": "44",
									"weight": 0,
									"defects": []
								},
								{
									"name": "RGPSRT@",
									"children": [],
									"size": "23",
									"weight": 0,
									"defects": []
								},
								{
									"name": "MI004D",
									"children": [],
									"size": "1095",
									"weight": 0,
									"defects": []
								},
								{
									"name": "TDB371",
									"children": [],
									"size": "1038",
									"weight": 0,
									"defects": []
								},
								{
									"name": "MI003",
									"children": [],
									"size": "885",
									"weight": 0,
									"defects": []
								},
								{
									"name": "BRI000",
									"children": [],
									"size": "865",
									"weight": 0,
									"defects": []
								},
								{
									"name": "GARR06",
									"children": [],
									"size": "818",
									"weight": 0,
									"defects": []
								},
								{
									"name": "GARR11",
									"children": [],
									"size": "668",
									"weight": 0,
									"defects": []
								},
								{
									"name": "MIF001",
									"children": [],
									"size": "546",
									"weight": 0,
									"defects": []
								},
								{
									"name": "MRL061",
									"children": [],
									"size": "537",
									"weight": 0,
									"defects": []
								},
								{
									"name": "MI004H",
									"children": [],
									"size": "499",
									"weight": 0,
									"defects": []
								},
								{
									"name": "GARR18",
									"children": [],
									"size": "498",
									"weight": 0,
									"defects": []
								},
								{
									"name": "MI002",
									"children": [],
									"size": "465",
									"weight": 0,
									"defects": []
								},
								{
									"name": "MI030",
									"children": [],
									"size": "458",
									"weight": 0,
									"defects": []
								},
								{
									"name": "TDB359",
									"children": [],
									"size": "433",
									"weight": 0,
									"defects": []
								},
								{
									"name": "LKJ504",
									"children": [],
									"size": "427",
									"weight": 0,
									"defects": []
								},
								{
									"name": "MI006",
									"children": [],
									"size": "417",
									"weight": 0,
									"defects": []
								},
								{
									"name": "BRI002",
									"children": [],
									"size": "403",
									"weight": 0,
									"defects": []
								},
								{
									"name": "MRL063",
									"children": [],
									"size": "375",
									"weight": 0,
									"defects": []
								},
								{
									"name": "TDB357",
									"children": [],
									"size": "362",
									"weight": 0,
									"defects": []
								},
								{
									"name": "RGM16T",
									"children": [],
									"size": "356",
									"weight": 0,
									"defects": []
								},
								{
									"name": "MIF002",
									"children": [],
									"size": "337",
									"weight": 0,
									"defects": []
								},
								{
									"name": "GARU03",
									"children": [],
									"size": "310",
									"weight": 0,
									"defects": []
								},
								{
									"name": "GARU11",
									"children": [],
									"size": "299",
									"weight": 0,
									"defects": []
								},
								{
									"name": "MI031",
									"children": [],
									"size": "295",
									"weight": 0,
									"defects": []
								},
								{
									"name": "MRL060",
									"children": [],
									"size": "294",
									"weight": 0,
									"defects": []
								},
								{
									"name": "RGM41E",
									"children": [],
									"size": "246",
									"weight": 0,
									"defects": []
								},
								{
									"name": "GARR13",
									"children": [],
									"size": "243",
									"weight": 0,
									"defects": []
								},
								{
									"name": "RGM41A",
									"children": [],
									"size": "240",
									"weight": 0,
									"defects": []
								},
								{
									"name": "RGM42V",
									"children": [],
									"size": "236",
									"weight": 0,
									"defects": []
								},
								{
									"name": "MI021",
									"children": [],
									"size": "235",
									"weight": 0,
									"defects": []
								},
								{
									"name": "RGM42E",
									"children": [],
									"size": "232",
									"weight": 0,
									"defects": []
								},
								{
									"name": "MRL062",
									"children": [],
									"size": "229",
									"weight": 0,
									"defects": []
								},
								{
									"name": "GARR07",
									"children": [],
									"size": "222",
									"weight": 0,
									"defects": []
								},
								{
									"name": "DAS045A",
									"children": [],
									"size": "221",
									"weight": 0,
									"defects": []
								},
								{
									"name": "KPI102",
									"children": [],
									"size": "220",
									"weight": 0,
									"defects": []
								},
								{
									"name": "GARU13",
									"children": [],
									"size": "213",
									"weight": 0,
									"defects": []
								},
								{
									"name": "BRI105",
									"children": [],
									"size": "211",
									"weight": 0,
									"defects": []
								},
								{
									"name": "BRI110",
									"children": [],
									"size": "210",
									"weight": 0,
									"defects": []
								},
								{
									"name": "BRI101",
									"children": [],
									"size": "204",
									"weight": 0,
									"defects": []
								},
								{
									"name": "BRI107",
									"children": [],
									"size": "199",
									"weight": 0,
									"defects": []
								},
								{
									"name": "TDB372",
									"children": [],
									"size": "195",
									"weight": 0,
									"defects": []
								},
								{
									"name": "RGM81A",
									"children": [],
									"size": "193",
									"weight": 0,
									"defects": []
								},
								{
									"name": "RGM40A",
									"children": [],
									"size": "190",
									"weight": 0,
									"defects": []
								},
								{
									"name": "TGH026B",
									"children": [],
									"size": "189",
									"weight": 0,
									"defects": []
								},
								{
									"name": "BRI108",
									"children": [],
									"size": "186",
									"weight": 0,
									"defects": []
								},
								{
									"name": "BRI104",
									"children": [],
									"size": "177",
									"weight": 0,
									"defects": []
								},
								{
									"name": "RGM80P",
									"children": [],
									"size": "173",
									"weight": 0,
									"defects": []
								},
								{
									"name": "FIX141",
									"children": [],
									"size": "163",
									"weight": 0,
									"defects": []
								},
								{
									"name": "RGM80A",
									"children": [],
									"size": "162",
									"weight": 0,
									"defects": []
								},
								{
									"name": "RGM80T",
									"children": [],
									"size": "162",
									"weight": 0,
									"defects": []
								},
								{
									"name": "TGH026A",
									"children": [],
									"size": "157",
									"weight": 0,
									"defects": []
								},
								{
									"name": "BRI001",
									"children": [],
									"size": "154",
									"weight": 0,
									"defects": []
								},
								{
									"name": "GARR12",
									"children": [],
									"size": "147",
									"weight": 0,
									"defects": []
								},
								{
									"name": "DAS045B",
									"children": [],
									"size": "144",
									"weight": 0,
									"defects": []
								},
								{
									"name": "GARR09",
									"children": [],
									"size": "139",
									"weight": 0,
									"defects": []
								},
								{
									"name": "BRI109",
									"children": [],
									"size": "135",
									"weight": 0,
									"defects": []
								},
								{
									"name": "RGM51A",
									"children": [],
									"size": "134",
									"weight": 0,
									"defects": []
								},
								{
									"name": "GARR08",
									"children": [],
									"size": "132",
									"weight": 0,
									"defects": []
								},
								{
									"name": "BRI102",
									"children": [],
									"size": "124",
									"weight": 0,
									"defects": []
								},
								{
									"name": "SMA004",
									"children": [],
									"size": "123",
									"weight": 0,
									"defects": []
								},
								{
									"name": "BRI103",
									"children": [],
									"size": "109",
									"weight": 0,
									"defects": []
								},
								{
									"name": "MI009",
									"children": [],
									"size": "101",
									"weight": 0,
									"defects": []
								},
								{
									"name": "MI008",
									"children": [],
									"size": "74",
									"weight": 0,
									"defects": []
								},
								{
									"name": "CBW036D",
									"children": [],
									"size": "64",
									"weight": 0,
									"defects": []
								},
								{
									"name": "CBW036C",
									"children": [],
									"size": "62",
									"weight": 0,
									"defects": []
								},
								{
									"name": "GARR03DT",
									"children": [],
									"size": "61",
									"weight": 0,
									"defects": []
								},
								{
									"name": "REP002",
									"children": [],
									"size": "50",
									"weight": 0,
									"defects": []
								}
							]
						},
						{
							"name": "CLP/CLLE",
							"children": [
								{
									"name": "RGPROGCL",
									"children": [],
									"size": "503",
									"weight": 0,
									"defects": []
								},
								{
									"name": "MI101CL",
									"children": [],
									"size": "309",
									"weight": 0,
									"defects": []
								},
								{
									"name": "BRIDGE",
									"children": [],
									"size": "246",
									"weight": 0,
									"defects": []
								},
								{
									"name": "GARR03CL",
									"children": [],
									"size": "230",
									"weight": 0,
									"defects": []
								},
								{
									"name": "RGPSRTCL",
									"children": [],
									"size": "178",
									"weight": 0,
									"defects": []
								},
								{
									"name": "BRI201CL",
									"children": [],
									"size": "169",
									"weight": 0,
									"defects": []
								},
								{
									"name": "BRI202CL",
									"children": [],
									"size": "164",
									"weight": 0,
									"defects": []
								},
								{
									"name": "RGM18T",
									"children": [],
									"size": "160",
									"weight": 0,
									"defects": []
								},
								{
									"name": "MIF002CL",
									"children": [],
									"size": "155",
									"weight": 0,
									"defects": []
								},
								{
									"name": "MIF001CL",
									"children": [],
									"size": "154",
									"weight": 0,
									"defects": []
								},
								{
									"name": "REP001CL",
									"children": [],
									"size": "128",
									"weight": 0,
									"defects": []
								},
								{
									"name": "MI100CL",
									"children": [],
									"size": "122",
									"weight": 0,
									"defects": []
								},
								{
									"name": "RG3CL",
									"children": [],
									"size": "99",
									"weight": 0,
									"defects": []
								},
								{
									"name": "BRIRUNCL",
									"children": [],
									"size": "98",
									"weight": 0,
									"defects": []
								},
								{
									"name": "GARU03CL",
									"children": [],
									"size": "94",
									"weight": 0,
									"defects": []
								},
								{
									"name": "BRI001CL",
									"children": [],
									"size": "93",
									"weight": 0,
									"defects": []
								},
								{
									"name": "BRI103CL",
									"children": [],
									"size": "87",
									"weight": 0,
									"defects": []
								},
								{
									"name": "TDW523CL",
									"children": [],
									"size": "85",
									"weight": 0,
									"defects": []
								},
								{
									"name": "MI023CL",
									"children": [],
									"size": "83",
									"weight": 0,
									"defects": []
								},
								{
									"name": "LKJ504CL",
									"children": [],
									"size": "82",
									"weight": 0,
									"defects": []
								},
								{
									"name": "MI022CL",
									"children": [],
									"size": "82",
									"weight": 0,
									"defects": []
								},
								{
									"name": "TGH026CL",
									"children": [],
									"size": "80",
									"weight": 0,
									"defects": []
								},
								{
									"name": "GARR11CL",
									"children": [],
									"size": "74",
									"weight": 0,
									"defects": []
								},
								{
									"name": "DAS045CL",
									"children": [],
									"size": "72",
									"weight": 0,
									"defects": []
								},
								{
									"name": "GARR07CL",
									"children": [],
									"size": "63",
									"weight": 0,
									"defects": []
								},
								{
									"name": "GARR09CL",
									"children": [],
									"size": "63",
									"weight": 0,
									"defects": []
								},
								{
									"name": "GARR12CL",
									"children": [],
									"size": "63",
									"weight": 0,
									"defects": []
								},
								{
									"name": "TDW523BL",
									"children": [],
									"size": "62",
									"weight": 0,
									"defects": []
								},
								{
									"name": "GARR06CL",
									"children": [],
									"size": "61",
									"weight": 0,
									"defects": []
								},
								{
									"name": "MI021CL",
									"children": [],
									"size": "60",
									"weight": 0,
									"defects": []
								},
								{
									"name": "MI020CL",
									"children": [],
									"size": "58",
									"weight": 0,
									"defects": []
								},
								{
									"name": "SMA004CL",
									"children": [],
									"size": "55",
									"weight": 0,
									"defects": []
								},
								{
									"name": "RGPREVCL",
									"children": [],
									"size": "51",
									"weight": 0,
									"defects": []
								},
								{
									"name": "FIX141CL",
									"children": [],
									"size": "47",
									"weight": 0,
									"defects": []
								},
								{
									"name": "BRI302CL",
									"children": [],
									"size": "43",
									"weight": 0,
									"defects": []
								},
								{
									"name": "BRI304CL",
									"children": [],
									"size": "43",
									"weight": 0,
									"defects": []
								},
								{
									"name": "GARR13CL",
									"children": [],
									"size": "43",
									"weight": 0,
									"defects": []
								},
								{
									"name": "TDB371CL",
									"children": [],
									"size": "43",
									"weight": 0,
									"defects": []
								},
								{
									"name": "MI003CL",
									"children": [],
									"size": "42",
									"weight": 0,
									"defects": []
								},
								{
									"name": "MI008CL",
									"children": [],
									"size": "42",
									"weight": 0,
									"defects": []
								},
								{
									"name": "BRI301CL",
									"children": [],
									"size": "40",
									"weight": 0,
									"defects": []
								},
								{
									"name": "MI110CL",
									"children": [],
									"size": "40",
									"weight": 0,
									"defects": []
								},
								{
									"name": "MI006CL",
									"children": [],
									"size": "38",
									"weight": 0,
									"defects": []
								},
								{
									"name": "MI004CL",
									"children": [],
									"size": "36",
									"weight": 0,
									"defects": []
								},
								{
									"name": "TDB372CL",
									"children": [],
									"size": "36",
									"weight": 0,
									"defects": []
								},
								{
									"name": "MI002CL",
									"children": [],
									"size": "35",
									"weight": 0,
									"defects": []
								},
								{
									"name": "GARR08CL",
									"children": [],
									"size": "32",
									"weight": 0,
									"defects": []
								},
								{
									"name": "MI031CL",
									"children": [],
									"size": "32",
									"weight": 0,
									"defects": []
								},
								{
									"name": "MI030CL",
									"children": [],
									"size": "30",
									"weight": 0,
									"defects": []
								},
								{
									"name": "JMM290CL",
									"children": [],
									"size": "29",
									"weight": 0,
									"defects": []
								},
								{
									"name": "BRIATNCL",
									"children": [],
									"size": "25",
									"weight": 0,
									"defects": []
								},
								{
									"name": "RGCL",
									"children": [],
									"size": "24",
									"weight": 0,
									"defects": []
								},
								{
									"name": "RGPFMTCL",
									"children": [],
									"size": "296",
									"weight": 0.09090909090909091,
									"defects": [
										{
											"job": "253779",
											"incident": 1002640,
											"description": "INC-1002640: RG3 Dayend report fails in UAT",
											"foundInVersion": "",
											"dateRequested": "20161222"
										}
									],
									"count": 1
								},
								{
									"name": "REP002CL",
									"children": [],
									"size": "157",
									"weight": 0,
									"defects": []
								},
								{
									"name": "MRL061CL",
									"children": [],
									"size": "115",
									"weight": 0,
									"defects": []
								},
								{
									"name": "MRL063CL",
									"children": [],
									"size": "96",
									"weight": 0,
									"defects": []
								},
								{
									"name": "MRL060CL",
									"children": [],
									"size": "87",
									"weight": 0,
									"defects": []
								},
								{
									"name": "GARR18CL",
									"children": [],
									"size": "86",
									"weight": 0,
									"defects": []
								},
								{
									"name": "MRL062CL",
									"children": [],
									"size": "84",
									"weight": 0,
									"defects": []
								},
								{
									"name": "KPI102CL",
									"children": [],
									"size": "75",
									"weight": 0,
									"defects": []
								},
								{
									"name": "MI005CL",
									"children": [],
									"size": "57",
									"weight": 0,
									"defects": []
								}
							]
						}
					]
				},
				{
					"name": "*CMD",
					"children": [
						{
							"name": "CMD",
							"children": [
								{
									"name": "MI021CL",
									"children": [],
									"size": "63",
									"weight": 0,
									"defects": []
								},
								{
									"name": "MI020CL",
									"children": [],
									"size": "60",
									"weight": 0,
									"defects": []
								},
								{
									"name": "BRIDGE",
									"children": [],
									"size": "54",
									"weight": 0,
									"defects": []
								},
								{
									"name": "TDW523CL",
									"children": [],
									"size": "53",
									"weight": 0,
									"defects": []
								},
								{
									"name": "GARR03CL",
									"children": [],
									"size": "52",
									"weight": 0,
									"defects": []
								},
								{
									"name": "REP002CL",
									"children": [],
									"size": "50",
									"weight": 0,
									"defects": []
								},
								{
									"name": "GARR11CL",
									"children": [],
									"size": "47",
									"weight": 0,
									"defects": []
								},
								{
									"name": "MRL063CL",
									"children": [],
									"size": "46",
									"weight": 0,
									"defects": []
								},
								{
									"name": "MIF001CL",
									"children": [],
									"size": "40",
									"weight": 0,
									"defects": []
								},
								{
									"name": "MIF002CL",
									"children": [],
									"size": "40",
									"weight": 0,
									"defects": []
								},
								{
									"name": "RGPSRTCL",
									"children": [],
									"size": "40",
									"weight": 0,
									"defects": []
								},
								{
									"name": "SMA004CL",
									"children": [],
									"size": "37",
									"weight": 0,
									"defects": []
								},
								{
									"name": "GARR18CL",
									"children": [],
									"size": "34",
									"weight": 0,
									"defects": []
								},
								{
									"name": "BRI001CL",
									"children": [],
									"size": "33",
									"weight": 0,
									"defects": []
								},
								{
									"name": "MRL061CL",
									"children": [],
									"size": "31",
									"weight": 0,
									"defects": []
								},
								{
									"name": "TGH026CL",
									"children": [],
									"size": "30",
									"weight": 0,
									"defects": []
								},
								{
									"name": "GARR06CL",
									"children": [],
									"size": "29",
									"weight": 0,
									"defects": []
								},
								{
									"name": "LKJ504CL",
									"children": [],
									"size": "29",
									"weight": 0,
									"defects": []
								},
								{
									"name": "MI006CL",
									"children": [],
									"size": "29",
									"weight": 0,
									"defects": []
								},
								{
									"name": "GARR07CL",
									"children": [],
									"size": "28",
									"weight": 0,
									"defects": []
								},
								{
									"name": "GARR09CL",
									"children": [],
									"size": "28",
									"weight": 0,
									"defects": []
								},
								{
									"name": "GARR12CL",
									"children": [],
									"size": "28",
									"weight": 0,
									"defects": []
								},
								{
									"name": "MRL060CL",
									"children": [],
									"size": "28",
									"weight": 0,
									"defects": []
								},
								{
									"name": "MRL062CL",
									"children": [],
									"size": "28",
									"weight": 0,
									"defects": []
								},
								{
									"name": "FIX141CL",
									"children": [],
									"size": "27",
									"weight": 0,
									"defects": []
								},
								{
									"name": "GARR13CL",
									"children": [],
									"size": "27",
									"weight": 0,
									"defects": []
								},
								{
									"name": "MI003CL",
									"children": [],
									"size": "26",
									"weight": 0,
									"defects": []
								},
								{
									"name": "MI004CL",
									"children": [],
									"size": "26",
									"weight": 0,
									"defects": []
								},
								{
									"name": "MI005CL",
									"children": [],
									"size": "26",
									"weight": 0,
									"defects": []
								},
								{
									"name": "TDB371CL",
									"children": [],
									"size": "26",
									"weight": 0,
									"defects": []
								},
								{
									"name": "TDB372CL",
									"children": [],
									"size": "25",
									"weight": 0,
									"defects": []
								},
								{
									"name": "GARR08CL",
									"children": [],
									"size": "24",
									"weight": 0,
									"defects": []
								},
								{
									"name": "MI002CL",
									"children": [],
									"size": "24",
									"weight": 0,
									"defects": []
								},
								{
									"name": "REP001CL",
									"children": [],
									"size": "21",
									"weight": 0,
									"defects": []
								}
							]
						}
					]
				}
			]
		},
		{
			"name": "DEX",
			"children": [
				{
					"name": "*PGM",
					"children": [
						{
							"name": "RPG",
							"children": [
								{
									"name": "FEX015",
									"children": [],
									"size": "2512",
									"weight": 0,
									"defects": []
								},
								{
									"name": "TBLRELAPI",
									"children": [],
									"size": "2004",
									"weight": 0,
									"defects": []
								},
								{
									"name": "DTE.EXTREQ",
									"children": [],
									"size": "1769",
									"weight": 0,
									"defects": []
								},
								{
									"name": "TSB.EXTREQ",
									"children": [],
									"size": "1618",
									"weight": 0,
									"defects": []
								},
								{
									"name": "FEX022",
									"children": [],
									"size": "1436",
									"weight": 0,
									"defects": []
								},
								{
									"name": "FEX001",
									"children": [],
									"size": "1349",
									"weight": 0,
									"defects": []
								},
								{
									"name": "XPL001",
									"children": [],
									"size": "1298",
									"weight": 0,
									"defects": []
								},
								{
									"name": "FEX011",
									"children": [],
									"size": "1159",
									"weight": 0,
									"defects": []
								},
								{
									"name": "SAL001",
									"children": [],
									"size": "959",
									"weight": 0,
									"defects": []
								},
								{
									"name": "FEX012",
									"children": [],
									"size": "949",
									"weight": 0,
									"defects": []
								},
								{
									"name": "FEX021",
									"children": [],
									"size": "922",
									"weight": 0,
									"defects": []
								},
								{
									"name": "XEY020",
									"children": [],
									"size": "919",
									"weight": 0,
									"defects": []
								},
								{
									"name": "FEX010",
									"children": [],
									"size": "896",
									"weight": 0,
									"defects": []
								},
								{
									"name": "FEX013",
									"children": [],
									"size": "772",
									"weight": 0,
									"defects": []
								},
								{
									"name": "TRNEXT01",
									"children": [],
									"size": "707",
									"weight": 0,
									"defects": []
								},
								{
									"name": "DTE210",
									"children": [],
									"size": "651",
									"weight": 0,
									"defects": []
								},
								{
									"name": "MAP001",
									"children": [],
									"size": "564",
									"weight": 0,
									"defects": []
								},
								{
									"name": "TSB.ESSDTA",
									"children": [],
									"size": "551",
									"weight": 0,
									"defects": []
								},
								{
									"name": "DTE001",
									"children": [],
									"size": "548",
									"weight": 0,
									"defects": []
								},
								{
									"name": "DTE213",
									"children": [],
									"size": "531",
									"weight": 0,
									"defects": []
								},
								{
									"name": "FEX037",
									"children": [],
									"size": "526",
									"weight": 0,
									"defects": []
								},
								{
									"name": "DTE214",
									"children": [],
									"size": "522",
									"weight": 0,
									"defects": []
								},
								{
									"name": "DTE212",
									"children": [],
									"size": "518",
									"weight": 0,
									"defects": []
								},
								{
									"name": "DTE217",
									"children": [],
									"size": "515",
									"weight": 0,
									"defects": []
								},
								{
									"name": "DTE211",
									"children": [],
									"size": "508",
									"weight": 0,
									"defects": []
								},
								{
									"name": "TSB.EXTDEF",
									"children": [],
									"size": "500",
									"weight": 0,
									"defects": []
								},
								{
									"name": "DTE218",
									"children": [],
									"size": "498",
									"weight": 0,
									"defects": []
								},
								{
									"name": "TSB.SAL001",
									"children": [],
									"size": "482",
									"weight": 0,
									"defects": []
								},
								{
									"name": "DTE.ESSDTA",
									"children": [],
									"size": "478",
									"weight": 0,
									"defects": []
								},
								{
									"name": "FEX018",
									"children": [],
									"size": "473",
									"weight": 0,
									"defects": []
								},
								{
									"name": "DTE219",
									"children": [],
									"size": "472",
									"weight": 0,
									"defects": []
								},
								{
									"name": "DTE220",
									"children": [],
									"size": "472",
									"weight": 0,
									"defects": []
								},
								{
									"name": "TSB.RELAPI",
									"children": [],
									"size": "414",
									"weight": 0,
									"defects": []
								},
								{
									"name": "DTE.EXTTBL",
									"children": [],
									"size": "408",
									"weight": 0,
									"defects": []
								},
								{
									"name": "DTE.EXTDEF",
									"children": [],
									"size": "405",
									"weight": 0,
									"defects": []
								},
								{
									"name": "SAL025",
									"children": [],
									"size": "382",
									"weight": 0,
									"defects": []
								},
								{
									"name": "DTE.TBLREL",
									"children": [],
									"size": "347",
									"weight": 0,
									"defects": []
								},
								{
									"name": "TSB.FEXEML",
									"children": [],
									"size": "314",
									"weight": 0,
									"defects": []
								},
								{
									"name": "@AX6063259",
									"children": [],
									"size": "311",
									"weight": 0,
									"defects": []
								},
								{
									"name": "FEX023",
									"children": [],
									"size": "287",
									"weight": 0,
									"defects": []
								},
								{
									"name": "DTE.EXTCFG",
									"children": [],
									"size": "269",
									"weight": 0,
									"defects": []
								},
								{
									"name": "DTE.EXTRUN",
									"children": [],
									"size": "262",
									"weight": 0,
									"defects": []
								},
								{
									"name": "DTE.RELCFG",
									"children": [],
									"size": "259",
									"weight": 0,
									"defects": []
								},
								{
									"name": "DTE.EXTPLN",
									"children": [],
									"size": "253",
									"weight": 0,
									"defects": []
								},
								{
									"name": "TSB.TBLREL",
									"children": [],
									"size": "249",
									"weight": 0,
									"defects": []
								},
								{
									"name": "MIQUERYPRC",
									"children": [],
									"size": "243",
									"weight": 0,
									"defects": []
								},
								{
									"name": "DTE.RELDEF",
									"children": [],
									"size": "231",
									"weight": 0,
									"defects": []
								},
								{
									"name": "FEX.EMAIL",
									"children": [],
									"size": "199",
									"weight": 0,
									"defects": []
								},
								{
									"name": "DTE.EXTMSG",
									"children": [],
									"size": "196",
									"weight": 0,
									"defects": []
								},
								{
									"name": "DTE.REBCMD",
									"children": [],
									"size": "177",
									"weight": 0,
									"defects": []
								},
								{
									"name": "FEX034",
									"children": [],
									"size": "151",
									"weight": 0,
									"defects": []
								},
								{
									"name": "DTE.ACCEXT",
									"children": [],
									"size": "143",
									"weight": 0,
									"defects": []
								},
								{
									"name": "DTE.PEREXT",
									"children": [],
									"size": "143",
									"weight": 0,
									"defects": []
								},
								{
									"name": "DTE.LIBCMP",
									"children": [],
									"size": "103",
									"weight": 0,
									"defects": []
								},
								{
									"name": "FEX003",
									"children": [],
									"size": "70",
									"weight": 0,
									"defects": []
								},
								{
									"name": "DTE.GENCOL",
									"children": [],
									"size": "58",
									"weight": 0,
									"defects": []
								},
								{
									"name": "@BX6063263",
									"children": [],
									"size": "35",
									"weight": 0,
									"defects": []
								},
								{
									"name": "XEY015",
									"children": [],
									"size": "2185",
									"weight": 0,
									"defects": []
								},
								{
									"name": "XEY006",
									"children": [],
									"size": "2131",
									"weight": 0,
									"defects": []
								},
								{
									"name": "GETDWNLOAD",
									"children": [],
									"size": "1985",
									"weight": 0,
									"defects": []
								},
								{
									"name": "XEY002",
									"children": [],
									"size": "1714",
									"weight": 0,
									"defects": []
								},
								{
									"name": "MRL012",
									"children": [],
									"size": "1220",
									"weight": 0,
									"defects": []
								},
								{
									"name": "XEY005",
									"children": [],
									"size": "1173",
									"weight": 0,
									"defects": []
								},
								{
									"name": "XEY003",
									"children": [],
									"size": "1165",
									"weight": 0,
									"defects": []
								},
								{
									"name": "XML001",
									"children": [],
									"size": "1123",
									"weight": 0,
									"defects": []
								},
								{
									"name": "FEX002",
									"children": [],
									"size": "1083",
									"weight": 0.09090909090909091,
									"defects": [
										{
											"job": "247944",
											"incident": 1000610,
											"description": "MSGW on call to LOGERROR from FEX020",
											"foundInVersion": "",
											"dateRequested": "20160315"
										}
									],
									"count": 1
								},
								{
									"name": "XEY004",
									"children": [],
									"size": "1008",
									"weight": 0,
									"defects": []
								},
								{
									"name": "XEY007",
									"children": [],
									"size": "942",
									"weight": 0,
									"defects": []
								},
								{
									"name": "XEY011",
									"children": [],
									"size": "940",
									"weight": 0,
									"defects": []
								},
								{
									"name": "DTE003",
									"children": [],
									"size": "903",
									"weight": 0,
									"defects": []
								},
								{
									"name": "EAM002",
									"children": [],
									"size": "870",
									"weight": 0,
									"defects": []
								},
								{
									"name": "XEY019",
									"children": [],
									"size": "855",
									"weight": 0,
									"defects": []
								},
								{
									"name": "SAL026",
									"children": [],
									"size": "844",
									"weight": 0,
									"defects": []
								},
								{
									"name": "FEX029",
									"children": [],
									"size": "789",
									"weight": 0,
									"defects": []
								},
								{
									"name": "NJP007",
									"children": [],
									"size": "786",
									"weight": 0,
									"defects": []
								},
								{
									"name": "FEX035",
									"children": [],
									"size": "754",
									"weight": 0,
									"defects": []
								},
								{
									"name": "FEX038",
									"children": [],
									"size": "674",
									"weight": 0,
									"defects": []
								},
								{
									"name": "SAL024",
									"children": [],
									"size": "647",
									"weight": 0,
									"defects": []
								},
								{
									"name": "RPQ001",
									"children": [],
									"size": "615",
									"weight": 0,
									"defects": []
								},
								{
									"name": "GETCITMPRC",
									"children": [],
									"size": "599",
									"weight": 0,
									"defects": []
								},
								{
									"name": "SAL021",
									"children": [],
									"size": "575",
									"weight": 0,
									"defects": []
								},
								{
									"name": "MRL011",
									"children": [],
									"size": "570",
									"weight": 0,
									"defects": []
								},
								{
									"name": "SAL027",
									"children": [],
									"size": "554",
									"weight": 0,
									"defects": []
								},
								{
									"name": "DTE003A",
									"children": [],
									"size": "533",
									"weight": 0,
									"defects": []
								},
								{
									"name": "XEY016",
									"children": [],
									"size": "530",
									"weight": 0,
									"defects": []
								},
								{
									"name": "XEY017",
									"children": [],
									"size": "499",
									"weight": 0,
									"defects": []
								},
								{
									"name": "DTE216",
									"children": [],
									"size": "496",
									"weight": 0,
									"defects": []
								},
								{
									"name": "DTE215",
									"children": [],
									"size": "481",
									"weight": 0,
									"defects": []
								},
								{
									"name": "EAM003",
									"children": [],
									"size": "479",
									"weight": 0,
									"defects": []
								},
								{
									"name": "XEY012",
									"children": [],
									"size": "435",
									"weight": 0,
									"defects": []
								},
								{
									"name": "RUNPACKFEX",
									"children": [],
									"size": "417",
									"weight": 0,
									"defects": []
								},
								{
									"name": "FEX017",
									"children": [],
									"size": "409",
									"weight": 0,
									"defects": []
								},
								{
									"name": "CVTCSV",
									"children": [],
									"size": "408",
									"weight": 0,
									"defects": []
								},
								{
									"name": "MRL010",
									"children": [],
									"size": "404",
									"weight": 0,
									"defects": []
								},
								{
									"name": "FEX020",
									"children": [],
									"size": "403",
									"weight": 0.09090909090909091,
									"defects": [
										{
											"job": "247944",
											"incident": 1000610,
											"description": "MSGW on call to LOGERROR from FEX020",
											"foundInVersion": "",
											"dateRequested": "20160315"
										}
									],
									"count": 1
								},
								{
									"name": "XEY010",
									"children": [],
									"size": "379",
									"weight": 0,
									"defects": []
								},
								{
									"name": "FEX028",
									"children": [],
									"size": "373",
									"weight": 0,
									"defects": []
								},
								{
									"name": "DTE211A",
									"children": [],
									"size": "335",
									"weight": 0,
									"defects": []
								},
								{
									"name": "DTE213A",
									"children": [],
									"size": "318",
									"weight": 0,
									"defects": []
								},
								{
									"name": "DTE214A",
									"children": [],
									"size": "316",
									"weight": 0,
									"defects": []
								},
								{
									"name": "RPQ002",
									"children": [],
									"size": "313",
									"weight": 0,
									"defects": []
								},
								{
									"name": "DTE001A",
									"children": [],
									"size": "306",
									"weight": 0,
									"defects": []
								},
								{
									"name": "DTE202",
									"children": [],
									"size": "304",
									"weight": 0,
									"defects": []
								},
								{
									"name": "DTE217A",
									"children": [],
									"size": "302",
									"weight": 0,
									"defects": []
								},
								{
									"name": "LUX06",
									"children": [],
									"size": "295",
									"weight": 0,
									"defects": []
								},
								{
									"name": "DTE212A",
									"children": [],
									"size": "289",
									"weight": 0,
									"defects": []
								},
								{
									"name": "PRT411",
									"children": [],
									"size": "288",
									"weight": 0,
									"defects": []
								},
								{
									"name": "DTE210A",
									"children": [],
									"size": "281",
									"weight": 0,
									"defects": []
								},
								{
									"name": "DTE218A",
									"children": [],
									"size": "274",
									"weight": 0,
									"defects": []
								},
								{
									"name": "XML001PL",
									"children": [],
									"size": "268",
									"weight": 0,
									"defects": []
								},
								{
									"name": "FEX015PL",
									"children": [],
									"size": "267",
									"weight": 0,
									"defects": []
								},
								{
									"name": "SAL028",
									"children": [],
									"size": "265",
									"weight": 0,
									"defects": []
								},
								{
									"name": "FEX014",
									"children": [],
									"size": "262",
									"weight": 0,
									"defects": []
								},
								{
									"name": "XEY008",
									"children": [],
									"size": "261",
									"weight": 0,
									"defects": []
								},
								{
									"name": "XEY009",
									"children": [],
									"size": "242",
									"weight": 0,
									"defects": []
								},
								{
									"name": "DTE219A",
									"children": [],
									"size": "237",
									"weight": 0,
									"defects": []
								},
								{
									"name": "DTE220A",
									"children": [],
									"size": "237",
									"weight": 0,
									"defects": []
								},
								{
									"name": "MRL013",
									"children": [],
									"size": "224",
									"weight": 0,
									"defects": []
								},
								{
									"name": "TBL#RELAPI",
									"children": [],
									"size": "218",
									"weight": 0,
									"defects": []
								},
								{
									"name": "DVV003",
									"children": [],
									"size": "206",
									"weight": 0,
									"defects": []
								},
								{
									"name": "FEX005",
									"children": [],
									"size": "203",
									"weight": 0,
									"defects": []
								},
								{
									"name": "SAL029",
									"children": [],
									"size": "201",
									"weight": 0,
									"defects": []
								},
								{
									"name": "DTE201",
									"children": [],
									"size": "166",
									"weight": 0,
									"defects": []
								},
								{
									"name": "DTE#EXTREQ",
									"children": [],
									"size": "156",
									"weight": 0,
									"defects": []
								},
								{
									"name": "XEY013",
									"children": [],
									"size": "152",
									"weight": 0,
									"defects": []
								},
								{
									"name": "LUX13",
									"children": [],
									"size": "147",
									"weight": 0,
									"defects": []
								},
								{
									"name": "DTE#ESSDTA",
									"children": [],
									"size": "144",
									"weight": 0,
									"defects": []
								},
								{
									"name": "SAL019",
									"children": [],
									"size": "144",
									"weight": 0,
									"defects": []
								},
								{
									"name": "EMAILFEX",
									"children": [],
									"size": "143",
									"weight": 0,
									"defects": []
								},
								{
									"name": "DTE#EXTDEF",
									"children": [],
									"size": "142",
									"weight": 0,
									"defects": []
								},
								{
									"name": "DTE#EXTTBL",
									"children": [],
									"size": "141",
									"weight": 0,
									"defects": []
								},
								{
									"name": "LUX15",
									"children": [],
									"size": "138",
									"weight": 0,
									"defects": []
								},
								{
									"name": "SAL002",
									"children": [],
									"size": "138",
									"weight": 0,
									"defects": []
								},
								{
									"name": "FEX016",
									"children": [],
									"size": "132",
									"weight": 0,
									"defects": []
								},
								{
									"name": "SAL005",
									"children": [],
									"size": "132",
									"weight": 0,
									"defects": []
								},
								{
									"name": "SAL012",
									"children": [],
									"size": "132",
									"weight": 0,
									"defects": []
								},
								{
									"name": "CRNBAK",
									"children": [],
									"size": "126",
									"weight": 0,
									"defects": []
								},
								{
									"name": "SAL022",
									"children": [],
									"size": "126",
									"weight": 0,
									"defects": []
								},
								{
									"name": "LUX12",
									"children": [],
									"size": "125",
									"weight": 0,
									"defects": []
								},
								{
									"name": "SAL004",
									"children": [],
									"size": "124",
									"weight": 0,
									"defects": []
								},
								{
									"name": "SAL006",
									"children": [],
									"size": "122",
									"weight": 0,
									"defects": []
								},
								{
									"name": "LUX04",
									"children": [],
									"size": "119",
									"weight": 0,
									"defects": []
								},
								{
									"name": "DV003",
									"children": [],
									"size": "118",
									"weight": 0,
									"defects": []
								},
								{
									"name": "SAL008",
									"children": [],
									"size": "117",
									"weight": 0,
									"defects": []
								},
								{
									"name": "FEX031",
									"children": [],
									"size": "116",
									"weight": 0,
									"defects": []
								},
								{
									"name": "XEY018",
									"children": [],
									"size": "108",
									"weight": 0,
									"defects": []
								},
								{
									"name": "LUX08",
									"children": [],
									"size": "105",
									"weight": 0,
									"defects": []
								},
								{
									"name": "LUX05",
									"children": [],
									"size": "101",
									"weight": 0,
									"defects": []
								},
								{
									"name": "DV001",
									"children": [],
									"size": "98",
									"weight": 0,
									"defects": []
								},
								{
									"name": "LUX07",
									"children": [],
									"size": "94",
									"weight": 0,
									"defects": []
								},
								{
									"name": "FEX041",
									"children": [],
									"size": "86",
									"weight": 0,
									"defects": []
								},
								{
									"name": "DTERBCMD",
									"children": [],
									"size": "83",
									"weight": 0,
									"defects": []
								},
								{
									"name": "DTE#TBLREL",
									"children": [],
									"size": "79",
									"weight": 0,
									"defects": []
								},
								{
									"name": "@A054155JK",
									"children": [],
									"size": "74",
									"weight": 0,
									"defects": []
								},
								{
									"name": "LUX14",
									"children": [],
									"size": "73",
									"weight": 0,
									"defects": []
								},
								{
									"name": "DV004",
									"children": [],
									"size": "69",
									"weight": 0,
									"defects": []
								},
								{
									"name": "DV006",
									"children": [],
									"size": "69",
									"weight": 0,
									"defects": []
								},
								{
									"name": "LUX10",
									"children": [],
									"size": "65",
									"weight": 0,
									"defects": []
								},
								{
									"name": "LUX02",
									"children": [],
									"size": "61",
									"weight": 0,
									"defects": []
								},
								{
									"name": "DTE#RELCFG",
									"children": [],
									"size": "57",
									"weight": 0,
									"defects": []
								},
								{
									"name": "SAL001PR",
									"children": [],
									"size": "57",
									"weight": 0,
									"defects": []
								},
								{
									"name": "DTE#RELDEF",
									"children": [],
									"size": "53",
									"weight": 0,
									"defects": []
								},
								{
									"name": "LUX11",
									"children": [],
									"size": "53",
									"weight": 0,
									"defects": []
								},
								{
									"name": "DV002",
									"children": [],
									"size": "52",
									"weight": 0,
									"defects": []
								},
								{
									"name": "DTE#EXTRUN",
									"children": [],
									"size": "45",
									"weight": 0,
									"defects": []
								},
								{
									"name": "LUX09",
									"children": [],
									"size": "44",
									"weight": 0,
									"defects": []
								},
								{
									"name": "DTE#EXTPLN",
									"children": [],
									"size": "40",
									"weight": 0,
									"defects": []
								},
								{
									"name": "DV005",
									"children": [],
									"size": "40",
									"weight": 0,
									"defects": []
								},
								{
									"name": "DTE#EXTCFG",
									"children": [],
									"size": "39",
									"weight": 0,
									"defects": []
								},
								{
									"name": "DTE#EXTMSG",
									"children": [],
									"size": "37",
									"weight": 0,
									"defects": []
								},
								{
									"name": "LUX03",
									"children": [],
									"size": "32",
									"weight": 0,
									"defects": []
								},
								{
									"name": "DTE#REBCMD",
									"children": [],
									"size": "31",
									"weight": 0,
									"defects": []
								},
								{
									"name": "LUX01",
									"children": [],
									"size": "30",
									"weight": 0,
									"defects": []
								},
								{
									"name": "DTE#ACCEXT",
									"children": [],
									"size": "27",
									"weight": 0,
									"defects": []
								},
								{
									"name": "DTE#PEREXT",
									"children": [],
									"size": "27",
									"weight": 0,
									"defects": []
								},
								{
									"name": "FEX#EMAIL",
									"children": [],
									"size": "24",
									"weight": 0,
									"defects": []
								},
								{
									"name": "DTE#ENTITY",
									"children": [],
									"size": "22",
									"weight": 0,
									"defects": []
								},
								{
									"name": "DTE#LIBCMP",
									"children": [],
									"size": "15",
									"weight": 0,
									"defects": []
								},
								{
									"name": "DTE#GENCOL",
									"children": [],
									"size": "13",
									"weight": 0,
									"defects": []
								},
								{
									"name": "EMAILFEX",
									"children": [],
									"size": "13",
									"weight": 0,
									"defects": []
								},
								{
									"name": "NWS01",
									"children": [],
									"size": "293",
									"weight": 0,
									"defects": []
								},
								{
									"name": "MXG008",
									"children": [],
									"size": "49",
									"weight": 0,
									"defects": []
								}
							]
						},
						{
							"name": "CLP/CLLE",
							"children": [
								{
									"name": "@A05525601",
									"children": [],
									"size": "764",
									"weight": 0,
									"defects": []
								},
								{
									"name": "@A05844701",
									"children": [],
									"size": "757",
									"weight": 0,
									"defects": []
								},
								{
									"name": "@A04886901",
									"children": [],
									"size": "752",
									"weight": 0,
									"defects": []
								},
								{
									"name": "@A05262708",
									"children": [],
									"size": "748",
									"weight": 0,
									"defects": []
								},
								{
									"name": "@A05350204",
									"children": [],
									"size": "746",
									"weight": 0,
									"defects": []
								},
								{
									"name": "@A05262713",
									"children": [],
									"size": "742",
									"weight": 0,
									"defects": []
								},
								{
									"name": "@A05044610",
									"children": [],
									"size": "737",
									"weight": 0,
									"defects": []
								},
								{
									"name": "@A04715603",
									"children": [],
									"size": "734",
									"weight": 0,
									"defects": []
								},
								{
									"name": "@A04731302",
									"children": [],
									"size": "733",
									"weight": 0,
									"defects": []
								},
								{
									"name": "@A05786901",
									"children": [],
									"size": "733",
									"weight": 0,
									"defects": []
								},
								{
									"name": "@A04745606",
									"children": [],
									"size": "732",
									"weight": 0,
									"defects": []
								},
								{
									"name": "@A04815601",
									"children": [],
									"size": "732",
									"weight": 0,
									"defects": []
								},
								{
									"name": "@A04775102",
									"children": [],
									"size": "730",
									"weight": 0,
									"defects": []
								},
								{
									"name": "@A05967302",
									"children": [],
									"size": "729",
									"weight": 0,
									"defects": []
								},
								{
									"name": "@A04786703",
									"children": [],
									"size": "728",
									"weight": 0,
									"defects": []
								},
								{
									"name": "@A04382702",
									"children": [],
									"size": "727",
									"weight": 0,
									"defects": []
								},
								{
									"name": "@A04789202",
									"children": [],
									"size": "727",
									"weight": 0,
									"defects": []
								},
								{
									"name": "@A05044505",
									"children": [],
									"size": "723",
									"weight": 0,
									"defects": []
								},
								{
									"name": "@A05093701",
									"children": [],
									"size": "721",
									"weight": 0,
									"defects": []
								},
								{
									"name": "@A05223402",
									"children": [],
									"size": "720",
									"weight": 0,
									"defects": []
								},
								{
									"name": "@A05044511",
									"children": [],
									"size": "716",
									"weight": 0,
									"defects": []
								},
								{
									"name": "@A04942402",
									"children": [],
									"size": "705",
									"weight": 0,
									"defects": []
								},
								{
									"name": "@A05981903",
									"children": [],
									"size": "656",
									"weight": 0,
									"defects": []
								},
								{
									"name": "@A05415510",
									"children": [],
									"size": "652",
									"weight": 0,
									"defects": []
								},
								{
									"name": "@A06063259",
									"children": [],
									"size": "637",
									"weight": 0,
									"defects": []
								},
								{
									"name": "@A06063260",
									"children": [],
									"size": "636",
									"weight": 0,
									"defects": []
								},
								{
									"name": "@B06063263",
									"children": [],
									"size": "390",
									"weight": 0,
									"defects": []
								},
								{
									"name": "RPQ002CL",
									"children": [],
									"size": "367",
									"weight": 0,
									"defects": []
								},
								{
									"name": "@A05251201",
									"children": [],
									"size": "276",
									"weight": 0,
									"defects": []
								},
								{
									"name": "DV006BCL",
									"children": [],
									"size": "261",
									"weight": 0,
									"defects": []
								},
								{
									"name": "LUX02CL",
									"children": [],
									"size": "234",
									"weight": 0,
									"defects": []
								},
								{
									"name": "XEY001CL",
									"children": [],
									"size": "140",
									"weight": 0,
									"defects": []
								},
								{
									"name": "NJP007CL",
									"children": [],
									"size": "137",
									"weight": 0,
									"defects": []
								},
								{
									"name": "BRN240CL",
									"children": [],
									"size": "129",
									"weight": 0,
									"defects": []
								},
								{
									"name": "CVTCSVCL",
									"children": [],
									"size": "103",
									"weight": 0,
									"defects": []
								},
								{
									"name": "NWS01CL",
									"children": [],
									"size": "78",
									"weight": 0,
									"defects": []
								},
								{
									"name": "DV006CL",
									"children": [],
									"size": "67",
									"weight": 0,
									"defects": []
								},
								{
									"name": "DV007CL",
									"children": [],
									"size": "52",
									"weight": 0,
									"defects": []
								},
								{
									"name": "LUXFTPCL",
									"children": [],
									"size": "52",
									"weight": 0,
									"defects": []
								},
								{
									"name": "MXG008CL",
									"children": [],
									"size": "42",
									"weight": 0,
									"defects": []
								},
								{
									"name": "XEY004CL",
									"children": [],
									"size": "40",
									"weight": 0,
									"defects": []
								},
								{
									"name": "FEX017CL",
									"children": [],
									"size": "36",
									"weight": 0,
									"defects": []
								},
								{
									"name": "DV005CL",
									"children": [],
									"size": "35",
									"weight": 0,
									"defects": []
								},
								{
									"name": "FEX008CL",
									"children": [],
									"size": "34",
									"weight": 0,
									"defects": []
								},
								{
									"name": "DV001CL",
									"children": [],
									"size": "32",
									"weight": 0,
									"defects": []
								},
								{
									"name": "DV004CL",
									"children": [],
									"size": "32",
									"weight": 0,
									"defects": []
								},
								{
									"name": "DV003CL",
									"children": [],
									"size": "31",
									"weight": 0,
									"defects": []
								},
								{
									"name": "MXG001CL",
									"children": [],
									"size": "31",
									"weight": 0,
									"defects": []
								},
								{
									"name": "RPQ001CL",
									"children": [],
									"size": "31",
									"weight": 0,
									"defects": []
								},
								{
									"name": "DV002CL",
									"children": [],
									"size": "30",
									"weight": 0,
									"defects": []
								},
								{
									"name": "LUX01CL",
									"children": [],
									"size": "489",
									"weight": 0,
									"defects": []
								},
								{
									"name": "FEX022CL",
									"children": [],
									"size": "98",
									"weight": 0,
									"defects": []
								},
								{
									"name": "FEX020CL",
									"children": [],
									"size": "96",
									"weight": 0,
									"defects": []
								},
								{
									"name": "FEX021CL",
									"children": [],
									"size": "96",
									"weight": 0,
									"defects": []
								},
								{
									"name": "FEXQMQTST",
									"children": [],
									"size": "89",
									"weight": 0,
									"defects": []
								},
								{
									"name": "MRL013CL",
									"children": [],
									"size": "86",
									"weight": 0,
									"defects": []
								},
								{
									"name": "XML001CL",
									"children": [],
									"size": "84",
									"weight": 0,
									"defects": []
								},
								{
									"name": "FEX032CL",
									"children": [],
									"size": "81",
									"weight": 0,
									"defects": []
								},
								{
									"name": "XPL001CL",
									"children": [],
									"size": "81",
									"weight": 0,
									"defects": []
								},
								{
									"name": "FEX001CL",
									"children": [],
									"size": "79",
									"weight": 0,
									"defects": []
								},
								{
									"name": "FEX002CL",
									"children": [],
									"size": "69",
									"weight": 0,
									"defects": []
								},
								{
									"name": "SAL022CL",
									"children": [],
									"size": "66",
									"weight": 0,
									"defects": []
								},
								{
									"name": "SAL026CL",
									"children": [],
									"size": "65",
									"weight": 0,
									"defects": []
								},
								{
									"name": "SAL004CL",
									"children": [],
									"size": "64",
									"weight": 0,
									"defects": []
								},
								{
									"name": "SAL021CL",
									"children": [],
									"size": "64",
									"weight": 0,
									"defects": []
								},
								{
									"name": "SAL028CL",
									"children": [],
									"size": "61",
									"weight": 0,
									"defects": []
								},
								{
									"name": "SAL002CL",
									"children": [],
									"size": "60",
									"weight": 0,
									"defects": []
								},
								{
									"name": "SAL019CL",
									"children": [],
									"size": "60",
									"weight": 0,
									"defects": []
								},
								{
									"name": "SAL029CL",
									"children": [],
									"size": "60",
									"weight": 0,
									"defects": []
								},
								{
									"name": "SAL005CL",
									"children": [],
									"size": "59",
									"weight": 0,
									"defects": []
								},
								{
									"name": "SAL012CL",
									"children": [],
									"size": "59",
									"weight": 0,
									"defects": []
								},
								{
									"name": "SAL006CL",
									"children": [],
									"size": "58",
									"weight": 0,
									"defects": []
								},
								{
									"name": "CRNBAKCL",
									"children": [],
									"size": "57",
									"weight": 0,
									"defects": []
								},
								{
									"name": "FEX013CL",
									"children": [],
									"size": "57",
									"weight": 0,
									"defects": []
								},
								{
									"name": "SAL027CL",
									"children": [],
									"size": "57",
									"weight": 0,
									"defects": []
								},
								{
									"name": "SAL024CL",
									"children": [],
									"size": "56",
									"weight": 0,
									"defects": []
								},
								{
									"name": "FEX010CL",
									"children": [],
									"size": "55",
									"weight": 0,
									"defects": []
								},
								{
									"name": "TRNEXT01CL",
									"children": [],
									"size": "55",
									"weight": 0,
									"defects": []
								},
								{
									"name": "SAL025CL",
									"children": [],
									"size": "54",
									"weight": 0,
									"defects": []
								},
								{
									"name": "DTERBCMDCL",
									"children": [],
									"size": "50",
									"weight": 0,
									"defects": []
								},
								{
									"name": "FEX012CL",
									"children": [],
									"size": "50",
									"weight": 0,
									"defects": []
								},
								{
									"name": "FEX024CL",
									"children": [],
									"size": "50",
									"weight": 0,
									"defects": []
								},
								{
									"name": "XPLVALCL",
									"children": [],
									"size": "49",
									"weight": 0,
									"defects": []
								},
								{
									"name": "SAL008CL",
									"children": [],
									"size": "47",
									"weight": 0,
									"defects": []
								},
								{
									"name": "FEX036CL",
									"children": [],
									"size": "45",
									"weight": 0,
									"defects": []
								},
								{
									"name": "FEX011CL",
									"children": [],
									"size": "42",
									"weight": 0,
									"defects": []
								},
								{
									"name": "FEX039CL",
									"children": [],
									"size": "42",
									"weight": 0,
									"defects": []
								},
								{
									"name": "DTE213CL",
									"children": [],
									"size": "39",
									"weight": 0,
									"defects": []
								},
								{
									"name": "FEX018CL",
									"children": [],
									"size": "39",
									"weight": 0,
									"defects": []
								},
								{
									"name": "DTE217CL",
									"children": [],
									"size": "38",
									"weight": 0,
									"defects": []
								},
								{
									"name": "FEX031CL",
									"children": [],
									"size": "38",
									"weight": 0,
									"defects": []
								},
								{
									"name": "MRL011CL",
									"children": [],
									"size": "38",
									"weight": 0,
									"defects": []
								},
								{
									"name": "DTE211CL",
									"children": [],
									"size": "37",
									"weight": 0,
									"defects": []
								},
								{
									"name": "DTE214CL",
									"children": [],
									"size": "37",
									"weight": 0,
									"defects": []
								},
								{
									"name": "DTE219CL",
									"children": [],
									"size": "37",
									"weight": 0,
									"defects": []
								},
								{
									"name": "DTE220CL",
									"children": [],
									"size": "37",
									"weight": 0,
									"defects": []
								},
								{
									"name": "MAP001CL",
									"children": [],
									"size": "37",
									"weight": 0,
									"defects": []
								},
								{
									"name": "MRL010CL",
									"children": [],
									"size": "37",
									"weight": 0,
									"defects": []
								},
								{
									"name": "DTE210CL",
									"children": [],
									"size": "36",
									"weight": 0,
									"defects": []
								},
								{
									"name": "DTE212CL",
									"children": [],
									"size": "36",
									"weight": 0,
									"defects": []
								},
								{
									"name": "DTE218CL",
									"children": [],
									"size": "36",
									"weight": 0,
									"defects": []
								},
								{
									"name": "DVV003CL",
									"children": [],
									"size": "33",
									"weight": 0,
									"defects": []
								},
								{
									"name": "MRL012CL",
									"children": [],
									"size": "33",
									"weight": 0,
									"defects": []
								},
								{
									"name": "FEX025CL",
									"children": [],
									"size": "31",
									"weight": 0,
									"defects": []
								},
								{
									"name": "DTE201CL",
									"children": [],
									"size": "30",
									"weight": 0,
									"defects": []
								},
								{
									"name": "DTE215CL",
									"children": [],
									"size": "24",
									"weight": 0,
									"defects": []
								},
								{
									"name": "DTE216CL",
									"children": [],
									"size": "23",
									"weight": 0,
									"defects": []
								}
							]
						}
					]
				},
				{
					"name": "*FILE",
					"children": [
						{
							"name": "DSPF",
							"children": [
								{
									"name": "FEX038FM",
									"children": [],
									"size": "710",
									"weight": 0,
									"defects": []
								},
								{
									"name": "EAM002FM",
									"children": [],
									"size": "479",
									"weight": 0,
									"defects": []
								},
								{
									"name": "EAM001FM",
									"children": [],
									"size": "459",
									"weight": 0,
									"defects": []
								},
								{
									"name": "FEX001FM",
									"children": [],
									"size": "441",
									"weight": 0,
									"defects": []
								},
								{
									"name": "FEX010FM",
									"children": [],
									"size": "412",
									"weight": 0,
									"defects": []
								},
								{
									"name": "FEX012FM",
									"children": [],
									"size": "335",
									"weight": 0,
									"defects": []
								},
								{
									"name": "FEX037FM",
									"children": [],
									"size": "293",
									"weight": 0,
									"defects": []
								},
								{
									"name": "FEX011FM",
									"children": [],
									"size": "276",
									"weight": 0,
									"defects": []
								},
								{
									"name": "FEX017FM",
									"children": [],
									"size": "267",
									"weight": 0,
									"defects": []
								},
								{
									"name": "MRL011FM",
									"children": [],
									"size": "256",
									"weight": 0,
									"defects": []
								},
								{
									"name": "FEX013FM",
									"children": [],
									"size": "200",
									"weight": 0,
									"defects": []
								},
								{
									"name": "FEX018FM",
									"children": [],
									"size": "190",
									"weight": 0,
									"defects": []
								},
								{
									"name": "RPQ001FM",
									"children": [],
									"size": "179",
									"weight": 0,
									"defects": []
								},
								{
									"name": "MAP001FM",
									"children": [],
									"size": "172",
									"weight": 0,
									"defects": []
								},
								{
									"name": "DTE003AFM",
									"children": [],
									"size": "146",
									"weight": 0,
									"defects": []
								},
								{
									"name": "DTE003FM",
									"children": [],
									"size": "143",
									"weight": 0,
									"defects": []
								},
								{
									"name": "DTE213FM",
									"children": [],
									"size": "131",
									"weight": 0,
									"defects": []
								},
								{
									"name": "FEX023FM",
									"children": [],
									"size": "131",
									"weight": 0,
									"defects": []
								},
								{
									"name": "DTE215FM",
									"children": [],
									"size": "130",
									"weight": 0,
									"defects": []
								},
								{
									"name": "DTE216FM",
									"children": [],
									"size": "129",
									"weight": 0,
									"defects": []
								},
								{
									"name": "FEX020FM",
									"children": [],
									"size": "127",
									"weight": 0,
									"defects": []
								},
								{
									"name": "DTE214AFM",
									"children": [],
									"size": "125",
									"weight": 0,
									"defects": []
								},
								{
									"name": "DTE214FM",
									"children": [],
									"size": "125",
									"weight": 0,
									"defects": []
								},
								{
									"name": "DTE211FM",
									"children": [],
									"size": "124",
									"weight": 0,
									"defects": []
								},
								{
									"name": "DTE212FM",
									"children": [],
									"size": "121",
									"weight": 0,
									"defects": []
								},
								{
									"name": "DTE217FM",
									"children": [],
									"size": "121",
									"weight": 0,
									"defects": []
								},
								{
									"name": "DTE001AFM",
									"children": [],
									"size": "120",
									"weight": 0,
									"defects": []
								},
								{
									"name": "DTE219FM",
									"children": [],
									"size": "115",
									"weight": 0,
									"defects": []
								},
								{
									"name": "DTE220FM",
									"children": [],
									"size": "115",
									"weight": 0,
									"defects": []
								},
								{
									"name": "DTE001FM",
									"children": [],
									"size": "114",
									"weight": 0,
									"defects": []
								},
								{
									"name": "DTE210FM",
									"children": [],
									"size": "113",
									"weight": 0,
									"defects": []
								},
								{
									"name": "DTE212AFM",
									"children": [],
									"size": "113",
									"weight": 0,
									"defects": []
								},
								{
									"name": "DTE218AFM",
									"children": [],
									"size": "112",
									"weight": 0,
									"defects": []
								},
								{
									"name": "DTE218FM",
									"children": [],
									"size": "111",
									"weight": 0,
									"defects": []
								},
								{
									"name": "DTE213AFM",
									"children": [],
									"size": "109",
									"weight": 0,
									"defects": []
								},
								{
									"name": "DTE210AFM",
									"children": [],
									"size": "102",
									"weight": 0,
									"defects": []
								},
								{
									"name": "DTE217AFM",
									"children": [],
									"size": "102",
									"weight": 0,
									"defects": []
								},
								{
									"name": "DTE211AFM",
									"children": [],
									"size": "94",
									"weight": 0,
									"defects": []
								},
								{
									"name": "FEX014FM",
									"children": [],
									"size": "87",
									"weight": 0,
									"defects": []
								},
								{
									"name": "DTE219AFM",
									"children": [],
									"size": "86",
									"weight": 0,
									"defects": []
								},
								{
									"name": "DTE220AFM",
									"children": [],
									"size": "86",
									"weight": 0,
									"defects": []
								}
							]
						},
						{
							"name": "Database",
							"children": [
								{
									"name": "XEY003WK",
									"children": [],
									"size": "218",
									"weight": 0,
									"defects": []
								},
								{
									"name": "FEXDEF",
									"children": [],
									"size": "87",
									"weight": 0,
									"defects": []
								},
								{
									"name": "EQRDET",
									"children": [],
									"size": "84",
									"weight": 0,
									"defects": []
								},
								{
									"name": "XEY004WK",
									"children": [],
									"size": "83",
									"weight": 0,
									"defects": []
								},
								{
									"name": "XEY005WK",
									"children": [],
									"size": "58",
									"weight": 0,
									"defects": []
								},
								{
									"name": "MIHEDR",
									"children": [],
									"size": "51",
									"weight": 0,
									"defects": []
								},
								{
									"name": "XEY019WK",
									"children": [],
									"size": "50",
									"weight": 0,
									"defects": []
								},
								{
									"name": "MIQRY",
									"children": [],
									"size": "46",
									"weight": 0,
									"defects": []
								},
								{
									"name": "MLTYPE",
									"children": [],
									"size": "46",
									"weight": 0,
									"defects": []
								},
								{
									"name": "FEXLAY",
									"children": [],
									"size": "45",
									"weight": 0,
									"defects": []
								},
								{
									"name": "MILINK",
									"children": [],
									"size": "41",
									"weight": 0,
									"defects": []
								},
								{
									"name": "MITEMD",
									"children": [],
									"size": "41",
									"weight": 0,
									"defects": []
								},
								{
									"name": "MITEMH",
									"children": [],
									"size": "40",
									"weight": 0,
									"defects": []
								},
								{
									"name": "EQRDEF",
									"children": [],
									"size": "38",
									"weight": 0,
									"defects": []
								},
								{
									"name": "MIDET",
									"children": [],
									"size": "37",
									"weight": 0,
									"defects": []
								},
								{
									"name": "FEXSUB",
									"children": [],
									"size": "36",
									"weight": 0,
									"defects": []
								},
								{
									"name": "MIHIS",
									"children": [],
									"size": "36",
									"weight": 0,
									"defects": []
								},
								{
									"name": "FEXSEL",
									"children": [],
									"size": "35",
									"weight": 0,
									"defects": []
								},
								{
									"name": "FEXCMP",
									"children": [],
									"size": "34",
									"weight": 0,
									"defects": []
								},
								{
									"name": "KPIDTA",
									"children": [],
									"size": "34",
									"weight": 0,
									"defects": []
								},
								{
									"name": "MIADTL",
									"children": [],
									"size": "34",
									"weight": 0,
									"defects": []
								},
								{
									"name": "MIPERD",
									"children": [],
									"size": "34",
									"weight": 0,
									"defects": []
								},
								{
									"name": "MIDETL",
									"children": [],
									"size": "33",
									"weight": 0,
									"defects": []
								},
								{
									"name": "KPIDES",
									"children": [],
									"size": "32",
									"weight": 0,
									"defects": []
								},
								{
									"name": "MIAREA",
									"children": [],
									"size": "31",
									"weight": 0,
									"defects": []
								},
								{
									"name": "DATACHDREQ",
									"children": [],
									"size": "78",
									"weight": 0,
									"defects": []
								},
								{
									"name": "DATAREPTSK",
									"children": [],
									"size": "68",
									"weight": 0,
									"defects": []
								},
								{
									"name": "DATAEXTINS",
									"children": [],
									"size": "67",
									"weight": 0,
									"defects": []
								},
								{
									"name": "DATARELCFG",
									"children": [],
									"size": "61",
									"weight": 0,
									"defects": []
								},
								{
									"name": "DATAEXTCFG",
									"children": [],
									"size": "60",
									"weight": 0,
									"defects": []
								},
								{
									"name": "DTERELCONF",
									"children": [],
									"size": "58",
									"weight": 0,
									"defects": []
								},
								{
									"name": "DATATBLKEY",
									"children": [],
									"size": "57",
									"weight": 0,
									"defects": []
								},
								{
									"name": "DATAACCEXT",
									"children": [],
									"size": "56",
									"weight": 0,
									"defects": []
								},
								{
									"name": "DATAPEREXT",
									"children": [],
									"size": "56",
									"weight": 0,
									"defects": []
								},
								{
									"name": "DATAESSDTA",
									"children": [],
									"size": "55",
									"weight": 0,
									"defects": []
								},
								{
									"name": "DATAEXTRUN",
									"children": [],
									"size": "55",
									"weight": 0,
									"defects": []
								},
								{
									"name": "DATAEXTMSG",
									"children": [],
									"size": "53",
									"weight": 0,
									"defects": []
								},
								{
									"name": "DATARELDEF",
									"children": [],
									"size": "52",
									"weight": 0,
									"defects": []
								},
								{
									"name": "DATAEXTDEF",
									"children": [],
									"size": "51",
									"weight": 0,
									"defects": []
								},
								{
									"name": "DATAREBCMD",
									"children": [],
									"size": "49",
									"weight": 0,
									"defects": []
								},
								{
									"name": "DATAEXTPLN",
									"children": [],
									"size": "48",
									"weight": 0,
									"defects": []
								},
								{
									"name": "DATAPURPSE",
									"children": [],
									"size": "48",
									"weight": 0,
									"defects": []
								},
								{
									"name": "DTETBLCONF",
									"children": [],
									"size": "42",
									"weight": 0,
									"defects": []
								},
								{
									"name": "EQRDET01",
									"children": [],
									"size": "21",
									"weight": 0,
									"defects": []
								},
								{
									"name": "FEXDEFL2",
									"children": [],
									"size": "19",
									"weight": 0,
									"defects": []
								}
							]
						}
					]
				},
				{
					"name": "*CMD",
					"children": [
						{
							"name": "CMD",
							"children": [
								{
									"name": "FEX002CL",
									"children": [],
									"size": "80",
									"weight": 0,
									"defects": []
								},
								{
									"name": "XEY001CL",
									"children": [],
									"size": "75",
									"weight": 0,
									"defects": []
								},
								{
									"name": "FEX001CL",
									"children": [],
									"size": "47",
									"weight": 0,
									"defects": []
								},
								{
									"name": "FEX032CL",
									"children": [],
									"size": "47",
									"weight": 0,
									"defects": []
								},
								{
									"name": "FEX020CL",
									"children": [],
									"size": "45",
									"weight": 0,
									"defects": []
								},
								{
									"name": "RPQ002CL",
									"children": [],
									"size": "45",
									"weight": 0,
									"defects": []
								},
								{
									"name": "DV006CL",
									"children": [],
									"size": "44",
									"weight": 0,
									"defects": []
								},
								{
									"name": "SAL024CL",
									"children": [],
									"size": "42",
									"weight": 0,
									"defects": []
								},
								{
									"name": "CVTCSVCL",
									"children": [],
									"size": "41",
									"weight": 0,
									"defects": []
								},
								{
									"name": "SAL022CL",
									"children": [],
									"size": "41",
									"weight": 0,
									"defects": []
								},
								{
									"name": "XPL001CL",
									"children": [],
									"size": "40",
									"weight": 0,
									"defects": []
								},
								{
									"name": "FEXQMQTST",
									"children": [],
									"size": "38",
									"weight": 0,
									"defects": []
								},
								{
									"name": "SAL002CL",
									"children": [],
									"size": "38",
									"weight": 0,
									"defects": []
								},
								{
									"name": "SAL004CL",
									"children": [],
									"size": "37",
									"weight": 0,
									"defects": []
								},
								{
									"name": "SAL021CL",
									"children": [],
									"size": "37",
									"weight": 0,
									"defects": []
								},
								{
									"name": "SAL026CL",
									"children": [],
									"size": "37",
									"weight": 0,
									"defects": []
								},
								{
									"name": "SAL028CL",
									"children": [],
									"size": "37",
									"weight": 0,
									"defects": []
								},
								{
									"name": "SAL012CL",
									"children": [],
									"size": "36",
									"weight": 0,
									"defects": []
								},
								{
									"name": "SAL029CL",
									"children": [],
									"size": "36",
									"weight": 0,
									"defects": []
								},
								{
									"name": "LUX01CL",
									"children": [],
									"size": "35",
									"weight": 0,
									"defects": []
								},
								{
									"name": "SAL005CL",
									"children": [],
									"size": "35",
									"weight": 0,
									"defects": []
								},
								{
									"name": "SAL019CL",
									"children": [],
									"size": "35",
									"weight": 0,
									"defects": []
								},
								{
									"name": "SAL006CL",
									"children": [],
									"size": "34",
									"weight": 0,
									"defects": []
								},
								{
									"name": "SAL025CL",
									"children": [],
									"size": "33",
									"weight": 0,
									"defects": []
								},
								{
									"name": "TRNEXT01CL",
									"children": [],
									"size": "33",
									"weight": 0,
									"defects": []
								},
								{
									"name": "SAL027CL",
									"children": [],
									"size": "32",
									"weight": 0,
									"defects": []
								},
								{
									"name": "DTE213CL",
									"children": [],
									"size": "31",
									"weight": 0,
									"defects": []
								},
								{
									"name": "MRL011CL",
									"children": [],
									"size": "30",
									"weight": 0,
									"defects": []
								},
								{
									"name": "SAL008CL",
									"children": [],
									"size": "30",
									"weight": 0,
									"defects": []
								},
								{
									"name": "MRL012CL",
									"children": [],
									"size": "29",
									"weight": 0,
									"defects": []
								},
								{
									"name": "DTE211CL",
									"children": [],
									"size": "28",
									"weight": 0,
									"defects": []
								},
								{
									"name": "DTE212CL",
									"children": [],
									"size": "28",
									"weight": 0,
									"defects": []
								},
								{
									"name": "DTE214CL",
									"children": [],
									"size": "28",
									"weight": 0,
									"defects": []
								},
								{
									"name": "DTE217CL",
									"children": [],
									"size": "28",
									"weight": 0,
									"defects": []
								},
								{
									"name": "FEX012CL",
									"children": [],
									"size": "28",
									"weight": 0,
									"defects": []
								},
								{
									"name": "DTE210CL",
									"children": [],
									"size": "27",
									"weight": 0,
									"defects": []
								},
								{
									"name": "DTE219CL",
									"children": [],
									"size": "27",
									"weight": 0,
									"defects": []
								},
								{
									"name": "DTE220CL",
									"children": [],
									"size": "27",
									"weight": 0,
									"defects": []
								},
								{
									"name": "DTE218CL",
									"children": [],
									"size": "26",
									"weight": 0,
									"defects": []
								},
								{
									"name": "FEX011CL",
									"children": [],
									"size": "26",
									"weight": 0,
									"defects": []
								},
								{
									"name": "FEX031CL",
									"children": [],
									"size": "26",
									"weight": 0,
									"defects": []
								},
								{
									"name": "MAP001CL",
									"children": [],
									"size": "26",
									"weight": 0,
									"defects": []
								},
								{
									"name": "LUXFTPCL",
									"children": [],
									"size": "25",
									"weight": 0,
									"defects": []
								},
								{
									"name": "MXG008CL",
									"children": [],
									"size": "25",
									"weight": 0,
									"defects": []
								},
								{
									"name": "DV005CL",
									"children": [],
									"size": "24",
									"weight": 0,
									"defects": []
								},
								{
									"name": "DV007CL",
									"children": [],
									"size": "24",
									"weight": 0,
									"defects": []
								},
								{
									"name": "RPQ001CL",
									"children": [],
									"size": "24",
									"weight": 0,
									"defects": []
								},
								{
									"name": "CRNBAKCL",
									"children": [],
									"size": "22",
									"weight": 0,
									"defects": []
								},
								{
									"name": "DV003CL",
									"children": [],
									"size": "22",
									"weight": 0,
									"defects": []
								},
								{
									"name": "FEX024CL",
									"children": [],
									"size": "22",
									"weight": 0,
									"defects": []
								},
								{
									"name": "DTERBCMDCL",
									"children": [],
									"size": "21",
									"weight": 0,
									"defects": []
								},
								{
									"name": "DV001CL",
									"children": [],
									"size": "21",
									"weight": 0,
									"defects": []
								},
								{
									"name": "DV002CL",
									"children": [],
									"size": "21",
									"weight": 0,
									"defects": []
								},
								{
									"name": "DV004CL",
									"children": [],
									"size": "21",
									"weight": 0,
									"defects": []
								},
								{
									"name": "DTE201CL",
									"children": [],
									"size": "20",
									"weight": 0,
									"defects": []
								},
								{
									"name": "DTE215CL",
									"children": [],
									"size": "20",
									"weight": 0,
									"defects": []
								},
								{
									"name": "FEX025CL",
									"children": [],
									"size": "20",
									"weight": 0,
									"defects": []
								},
								{
									"name": "DTE216CL",
									"children": [],
									"size": "19",
									"weight": 0,
									"defects": []
								},
								{
									"name": "MXG001CL",
									"children": [],
									"size": "19",
									"weight": 0,
									"defects": []
								},
								{
									"name": "NJP007CL",
									"children": [],
									"size": "15",
									"weight": 0,
									"defects": []
								}
							]
						}
					]
				}
			]
		}
	]
}