{
	"name": "WEB",
	"children": [
		{
			"name": "WEB",
			"children": [
				{
					"name": "*CMD",
					"children": [
						{
							"name": "CMD",
							"children": [
								{
									"name": "TRESPASUT",
									"children": [],
									"size": "33",
									"weight": 0,
									"defects": []
								},
								{
									"name": "TRESPERUT",
									"children": [],
									"size": "31",
									"weight": 0,
									"defects": []
								}
							]
						}
					]
				},
				{
					"name": "*FILE",
					"children": [
						{
							"name": "Database",
							"children": [
								{
									"name": "OACONSUMER",
									"children": [],
									"size": "31",
									"weight": 0,
									"defects": []
								},
								{
									"name": "OAREQTOKEN",
									"children": [],
									"size": "27",
									"weight": 0,
									"defects": []
								},
								{
									"name": "OAACCTOKEN",
									"children": [],
									"size": "25",
									"weight": 0,
									"defects": []
								},
								{
									"name": "OAACCTOK01",
									"children": [],
									"size": "17",
									"weight": 0,
									"defects": []
								},
								{
									"name": "OAACCTOK02",
									"children": [],
									"size": "17",
									"weight": 0,
									"defects": []
								},
								{
									"name": "OACONSUM01",
									"children": [],
									"size": "17",
									"weight": 0,
									"defects": []
								},
								{
									"name": "OACONSUM02",
									"children": [],
									"size": "17",
									"weight": 0,
									"defects": []
								},
								{
									"name": "OAREQTOK01",
									"children": [],
									"size": "17",
									"weight": 0,
									"defects": []
								},
								{
									"name": "OAREQTOK02",
									"children": [],
									"size": "17",
									"weight": 0,
									"defects": []
								},
								{
									"name": "MFORDER",
									"children": [],
									"size": "14",
									"weight": 0,
									"defects": []
								}
							]
						}
					]
				},
				{
					"name": "*PGM",
					"children": [
						{
							"name": "CLP/CLLE",
							"children": [
								{
									"name": "TRESPASUT",
									"children": [],
									"size": "29",
									"weight": 0,
									"defects": []
								},
								{
									"name": "TRESPERUT",
									"children": [],
									"size": "28",
									"weight": 0,
									"defects": []
								}
							]
						}
					]
				}
			]
		}
	]
}