{
    "description": "Root Node",
    "owners": [{
        "name": "Alan Gordon"
    }],
    "items": ["quality-owners", "code-owners"],
    "quality-owners": { 
        "type": "view",
        "description": "Quality Owners View",
        "owners": [{
            "name": "Alan Gordon"
        }],
        "items": ["neon-as-f63", "fees-f63", "delphi-transactions-f63"],
        "neon-as-f63": {
            "type": "project",
            "description": "Neon AS - F63",
            "owners": [{
                "name": "Neil Morgans"
            }]
        },
        "fees-f63": {
            "type": "project",
            "description": "Fees - F63",
            "owners": [{
                "name": "Adam Grey"
            }]
        },
        "delphi-transactions-f63": {
            "type": "project",
            "description": "Delphi Transactions - F63",
            "owners": [{
                "name": "Mark Humphreys"
            }]
        }
    },
    "code-owners": { 
        "type": "view",
        "description": "Code Owner View",
        "owners": [{
            "name": "Alan Gordon"
        }],
        "items": ["delphi", "java", "rpg"],
        "delphi": {
            "type": "specialisation",
            "description": "Delphi",
            "owners": [{
                "name": "Mark Humphreys"
            }],
            "items": ["appLauncher", "bargainList", "bootstrap", "crm"],
            "appLauncher": {
                "type": "component",
                "description": "App Launcher",
                "owners": [],
                "items": ["application"],
                "application": {
                    "type": "sub-component",
                    "description": "Application",
                    "owners": []
                }
            },
            "bargainList": {
                "type": "component",
                "description": "Bargain List",
                "owners": [],
                "items": ["application"],
                "application": {
                    "type": "sub-component",
                    "description": "Application",
                    "owners": []
                }
            },
            "bootstrap": {
                "type": "component",
                "description": "Bootstrap",
                "owners": [],
                "items": ["application"],
                "application": {
                    "type": "sub-component",
                    "description": "Application",
                    "owners": []
                }
            },
            "crm": {
                "type": "component",
                "description": "CRM",
                "owners": [],
                "items": ["application", "secureMessaging", "delphi", "templateEditor", "rpgTransactions"],
                "application": {
                    "type": "sub-component",
                    "description": "Application",
                    "owners": []
                },
                "secureMessaging": {
                    "type": "sub-component",
                    "description": "Secure Messaging",
                    "owners": []
                },
                "delphi": {
                    "type": "sub-component",
                    "description": "Delphi",
                    "owners": []
                },
                "templateEditor": {
                    "type": "sub-component",
                    "description": "Template Editor",
                    "owners": []
                },
                "rpgTransactions": {
                    "type": "sub-component",
                    "description": "RPG Transactions",
                    "owners": []
                }
            },
            "orderManagement": {
                "type": "component",
                "description": "Order Management",
                "owners": [{
                    "name": "Mark Humphreys"
                }],
                "items": ["rpgTransactions"],
                "rpgTransactions": {
                    "type": "sub-component",
                    "description": "RPG Transactions",
                    "owners": [{
                        "name": "Mark Humphreys"
                    }]
                }
            }
        },
        "java": {
            "type": "specialisation",
            "description": "Java",
            "owners": [{
                "name": "Daniel Ecer"
            }],
            "items": ["antiMoneyLaundering", "clientSites", "figaroWeb"],
            "antiMoneyLaundering": {
                "type": "component",
                "description": "Anti Money Laundering / ID&V",
                "owners": [],
                "items": ["experianConnector", "id3Global"],
                "experianConnector": {
                    "type": "sub-component",
                    "description": "Experian Connector",
                    "owners": []
                },
                "id3Global": {
                    "type": "sub-component",
                    "description": "ID3 Global (formally ProveURU)",
                    "owners": []
                }
            },
            "clientSites": {
                "type": "component",
                "description": "Client Sites",
                "owners": [],
                "items": ["fidelitySite", "lawsafe", "snoopySite", "squirrel"],
                "fidelitySite": {
                    "type": "sub-component",
                    "description": "Fidelity Site",
                    "owners": []
                },
                "lawsafe": {
                    "type": "sub-component",
                    "description": "Lawsafe",
                    "owners": []
                },
                "snoopySite": {
                    "type": "sub-component",
                    "description": "Snoopy Site",
                    "owners": []
                },
                "squirrel": {
                    "type": "sub-component",
                    "description": "Squirrel",
                    "owners": []
                }
            },
            "figaroWeb": {
                "type": "component",
                "description": "FIGAROWeb",
                "owners": [],
                "items": ["trading"],
                "trading": {
                    "type": "sub-component",
                    "description": "Trading",
                    "owners": [{
                        "name": "Andrew Farrel"
                    }]
                }
            }
        },
        "rpg": {
            "type": "specialisation",
            "description": "RPG",
            "owners": [{
                "name": "Martin Tosney"
            }],
            "items": ["fees"],
            "fees": {
                "type": "component",
                "description": "Fees",
                "owners": []
            }
        }
    }
}