[
	{
		"module": "FCI#CLIENT",
		"team": "WEA",
		"area": "FOE",
		"objectType": "*PGM",
		"sourceType": "RPG",
		"defects": []
	},
	{
		"module": "OR2.OR03",
		"team": "TRD",
		"area": "ORD",
		"objectType": "*PGM",
		"sourceType": "RPG",
		"defects": [
			{
				"job": "247178",
				"incident": 1000564,
				"description": "Bulk Gilt Pricing Issue",
				"foundInVersion": "",
				"dateRequested": "20160215"
			},
			{
				"job": "247426",
				"incident": 1000688,
				"description": "FX rate not passing through to order in back office after changing the default house rate to a new rate.",
				"foundInVersion": "",
				"dateRequested": "20160224"
			},
			{
				"job": "248723",
				"incident": 1000986,
				"description": "Bulk order placement issue",
				"foundInVersion": "F153",
				"dateRequested": "20160422"
			},
			{
				"job": "249870",
				"incident": 1001324,
				"description": "95760:Trades Missing FX Queue                                                   INC-1001324",
				"foundInVersion": "",
				"dateRequested": "20160620"
			},
			{
				"job": "250993",
				"incident": 1001635,
				"description": "INC-1001635: Invest Contract total with Commission Overrides does not Calculate Correctly on cross Currency Invest Orders",
				"foundInVersion": "",
				"dateRequested": "20160804"
			},
			{
				"job": "253044",
				"incident": 1003539,
				"description": "Dev Job for MiFIDII Phase III Transaction reporting",
				"foundInVersion": "",
				"dateRequested": "20161111"
			},
			{
				"job": "256551",
				"incident": 1003549,
				"description": "INC-1003549: Trade sent to Cofunds with consideration of ~&pound;393,000 rather than ~&pound;6,000",
				"foundInVersion": "",
				"dateRequested": "20170601"
			},
			{
				"job": "257565",
				"incident": 1004318,
				"description": "SITD-187: F172 PATCH 4 - BILLY STBFIGCS & STBFIGTDW - Bulk orders not captured by ERIK",
				"foundInVersion": "",
				"dateRequested": "20170802"
			},
			{
				"job": "260778",
				"incident": 1006230,
				"description": "INC-1006230: Fidessa Sets orders are all being reported as natural persons",
				"foundInVersion": "",
				"dateRequested": "20180126"
			}
		],
		"count": 9
	},
	{
		"module": "U.VALORD",
		"team": "TRD",
		"area": "ORD",
		"objectType": "*PGM",
		"sourceType": "RPG",
		"defects": [
			{
				"job": "246638",
				"incident": 1000417,
				"description": "I1512-03801:Deal placed on-line although no terms loaded",
				"foundInVersion": "",
				"dateRequested": "20160120"
			},
			{
				"job": "250000",
				"incident": 1001053,
				"description": "INC-1001053:I1512-03801:Two ETFs with error messages",
				"foundInVersion": "",
				"dateRequested": "20160622"
			},
			{
				"job": "249776",
				"incident": 1001248,
				"description": "Portfolio Reblance Job in MSG Wait Job INVESCOSEL",
				"foundInVersion": "",
				"dateRequested": "20160615"
			},
			{
				"job": "249972",
				"incident": 1001304,
				"description": "Portfolio Management - error creating candidates",
				"foundInVersion": "",
				"dateRequested": "20160621"
			},
			{
				"job": "251300",
				"incident": 1001755,
				"description": "INC-1001755: Ignore KIIDs check for all Bulks and Model trades processed through the Investcentre website",
				"foundInVersion": "",
				"dateRequested": "20160818"
			},
			{
				"job": "254714",
				"incident": 1002946,
				"description": "INC-1002946: KIID warning is preventing UCITS trading on Traditional Website",
				"foundInVersion": "",
				"dateRequested": "20170210"
			},
			{
				"job": "255273",
				"incident": 1003186,
				"description": "INC-1003186: Web Fund Orders Getting Rejected",
				"foundInVersion": "",
				"dateRequested": "20170314"
			}
		],
		"count": 7
	},
	{
		"module": "OR2#VL03",
		"team": "TRD",
		"area": "ORD",
		"objectType": "*PGM",
		"sourceType": "RPG",
		"defects": [
			{
				"job": "245402",
				"incident": 1000390,
				"description": "90232:Raise/Invest Orders Not Being Included in PMS Fungibility Checks",
				"foundInVersion": "144",
				"dateRequested": "20151119"
			},
			{
				"job": "247291",
				"incident": 1000608,
				"description": "Front Office bond order processing issues",
				"foundInVersion": "",
				"dateRequested": "20160218"
			},
			{
				"job": "249831",
				"incident": 1001288,
				"description": "Duplicate orders warning message - doesn't work for required time period        (Pending/Notional Holdings Use-Cases)",
				"foundInVersion": "",
				"dateRequested": "20160616"
			},
			{
				"job": "250563",
				"incident": 1001492,
				"description": "INC-1001492: Raise orders giving &quot;Account does not hold enough stock in this depot&quot; error",
				"foundInVersion": "",
				"dateRequested": "20160715"
			},
			{
				"job": "250993",
				"incident": 1001635,
				"description": "INC-1001635: Invest Contract total with Commission Overrides does not Calculate Correctly on cross Currency Invest Orders",
				"foundInVersion": "",
				"dateRequested": "20160804"
			},
			{
				"job": "251065",
				"incident": 1001669,
				"description": "INC-1001669: Difference in values of Cost in Client and total in Contract Calculator",
				"foundInVersion": "",
				"dateRequested": "20160808"
			},
			{
				"job": "251061",
				"incident": 1001675,
				"description": "INC-1001675: Cost in Client value gets stuck and won't change despite change in stock and/or account",
				"foundInVersion": "",
				"dateRequested": "20160808"
			},
			{
				"job": "251300",
				"incident": 1001755,
				"description": "INC-1001755: Ignore KIIDs check for all Bulks and Model trades processed through the Investcentre website",
				"foundInVersion": "",
				"dateRequested": "20160818"
			},
			{
				"job": "254717",
				"incident": 1002942,
				"description": "INC-1002942: Charges being removed from Foreign Bulks",
				"foundInVersion": "",
				"dateRequested": "20170210"
			},
			{
				"job": "256089",
				"incident": 1003395,
				"description": "INC-1003395: Calastone Orders from Portfolio Management Route Incorrectly",
				"foundInVersion": "",
				"dateRequested": "20170505"
			},
			{
				"job": "255420",
				"incident": 1003515,
				"description": "106437:Over inflated calculation of limit orders inception.",
				"foundInVersion": "",
				"dateRequested": "20170321"
			},
			{
				"job": "260909",
				"incident": 1005979,
				"description": "INC-1005979: Order taking too long to update",
				"foundInVersion": "",
				"dateRequested": "20180131"
			}
		],
		"count": 12
	},
	{
		"module": "OR1.DE03",
		"team": "TRD",
		"area": "ORD",
		"objectType": "*PGM",
		"sourceType": "RPG",
		"defects": []
	},
	{
		"module": "OR2#CALC",
		"team": "TRD",
		"area": "ORD",
		"objectType": "*PGM",
		"sourceType": "RPG",
		"defects": [
			{
				"job": "255456",
				"incident": 1003088,
				"description": "INC-1003088: Bulk Allocations Incorrect with Commission Overrides",
				"foundInVersion": "",
				"dateRequested": "20170322"
			}
		],
		"count": 1
	},
	{
		"module": "OR2#VL02",
		"team": "TRD",
		"area": "ORD",
		"objectType": "*PGM",
		"sourceType": "RPG",
		"defects": [
			{
				"job": "251300",
				"incident": 1001755,
				"description": "INC-1001755: Ignore KIIDs check for all Bulks and Model trades processed through the Investcentre website",
				"foundInVersion": "",
				"dateRequested": "20160818"
			}
		],
		"count": 1
	},
	{
		"module": "OR2#CLI1",
		"team": "TRD",
		"area": "ORD",
		"objectType": "*PGM",
		"sourceType": "RPG",
		"defects": [
			{
				"job": "253044",
				"incident": 1003539,
				"description": "Dev Job for MiFIDII Phase III Transaction reporting",
				"foundInVersion": "",
				"dateRequested": "20161111"
			},
			{
				"job": "260472",
				"incident": 1005788,
				"description": "N/A: MiFID II: NPI/LEI validation issue in order routing - Joint Accounts",
				"foundInVersion": "",
				"dateRequested": "20180108"
			}
		],
		"count": 2
	},
	{
		"module": "OR2#VL06",
		"team": "TRD",
		"area": "ORD",
		"objectType": "*PGM",
		"sourceType": "RPG",
		"defects": []
	},
	{
		"module": "OR2#VL04",
		"team": "TRD",
		"area": "ORD",
		"objectType": "*PGM",
		"sourceType": "RPG",
		"defects": [
			{
				"job": "249800",
				"incident": 1001189,
				"description": "MPV SETS -  Nil Paid and Gilts to DMA                                           INC-1001189",
				"foundInVersion": "",
				"dateRequested": "20160615"
			}
		],
		"count": 1
	},
	{
		"module": "OR2.OR01",
		"team": "TRD",
		"area": "ORD",
		"objectType": "*PGM",
		"sourceType": "RPG",
		"defects": [
			{
				"job": "247291",
				"incident": 1000608,
				"description": "Front Office bond order processing issues",
				"foundInVersion": "",
				"dateRequested": "20160218"
			},
			{
				"job": "248481",
				"incident": 1000797,
				"description": "Deals show in duplicate",
				"foundInVersion": "",
				"dateRequested": "20160408"
			},
			{
				"job": "253044",
				"incident": 1003539,
				"description": "Dev Job for MiFIDII Phase III Transaction reporting",
				"foundInVersion": "",
				"dateRequested": "20161111"
			},
			{
				"job": "260778",
				"incident": 1006230,
				"description": "INC-1006230: Fidessa Sets orders are all being reported as natural persons",
				"foundInVersion": "",
				"dateRequested": "20180126"
			}
		],
		"count": 4
	},
	{
		"module": "OR2#PS01",
		"team": "TRD",
		"area": "ORD",
		"objectType": "*PGM",
		"sourceType": "RPG",
		"defects": [
			{
				"job": "246464",
				"incident": 1000419,
				"description": "PST-5:The Person Details tab is not working in FO in FGDFIGDAV",
				"foundInVersion": "",
				"dateRequested": "20160112"
			},
			{
				"job": "253002",
				"incident": 1001061,
				"description": "INC-1001061: Search Name&rsquo; limitations in Front Office Enquiry",
				"foundInVersion": "",
				"dateRequested": "20161110"
			}
		],
		"count": 2
	},
	{
		"module": "OR2#HL02",
		"team": "TRD",
		"area": "ORD",
		"objectType": "*PGM",
		"sourceType": "RPG",
		"defects": [
			{
				"job": "250393",
				"incident": 1000595,
				"description": "INC-1000595: New Valuation tab not outputting Model Comparison Data due to (unrelated) error message",
				"foundInVersion": "",
				"dateRequested": "20160708"
			},
			{
				"job": "247871",
				"incident": 1000783,
				"description": "Red flags on various valuations for no apparent reason",
				"foundInVersion": "",
				"dateRequested": "20160311"
			},
			{
				"job": "256187",
				"incident": 1003442,
				"description": "INC-1003442: Valuation - Summary - Gain/ Loss % column not populated",
				"foundInVersion": "",
				"dateRequested": "20170510"
			},
			{
				"job": "256522",
				"incident": 1003463,
				"description": "INC-1003463: Notional Holdings on Valuation: Book cost on sales incorrect",
				"foundInVersion": "",
				"dateRequested": "20170531"
			},
			{
				"job": "257663",
				"incident": 1004395,
				"description": "N/A: Portfolio valuations on Front office not including deleted portfolios",
				"foundInVersion": "",
				"dateRequested": "20170809"
			},
			{
				"job": "259835",
				"incident": 1005535,
				"description": "INC-1005535: F172 Patch 10 capital cash balance issue",
				"foundInVersion": "",
				"dateRequested": "20171127"
			},
			{
				"job": "259916",
				"incident": 1005567,
				"description": "INC-1005567: Valuation &gt; Model Comparison not including cash weighting",
				"foundInVersion": "",
				"dateRequested": "20171129"
			}
		],
		"count": 7
	},
	{
		"module": "OR2#TSPT",
		"team": "TRD",
		"area": "ORD",
		"objectType": "*PGM",
		"sourceType": "RPG",
		"defects": []
	},
	{
		"module": "OR2#ENTTRE",
		"team": "TRD",
		"area": "ORD",
		"objectType": "*PGM",
		"sourceType": "RPG",
		"defects": []
	},
	{
		"module": "OR2#VALE",
		"team": "TRD",
		"area": "ORD",
		"objectType": "*PGM",
		"sourceType": "RPG",
		"defects": []
	},
	{
		"module": "BO2#ORDER",
		"team": "TRD",
		"area": "DEA",
		"objectType": "*PGM",
		"sourceType": "RPG",
		"defects": [
			{
				"job": "256152",
				"incident": 1003493,
				"description": "DQW-331: Unable to Edit LKJ001 Firm code",
				"foundInVersion": "",
				"dateRequested": "20170508"
			}
		],
		"count": 1
	},
	{
		"module": "U#NTPAD2",
		"team": "TRD",
		"area": "DEA",
		"objectType": "*PGM",
		"sourceType": "RPG",
		"defects": []
	},
	{
		"module": "TS2#IV02",
		"team": "JTS",
		"area": "API",
		"objectType": "*PGM",
		"sourceType": "RPG",
		"defects": [
			{
				"job": "251680",
				"incident": 1001864,
				"description": "INC-1001864: FX issue (*GRP TDW CLICREDIT emergency fix)",
				"foundInVersion": "",
				"dateRequested": "20160908"
			},
			{
				"job": "252226",
				"incident": 1002272,
				"description": "INC-1002272: FX Inverse on houserate",
				"foundInVersion": "F162",
				"dateRequested": "20161005"
			},
			{
				"job": "254714",
				"incident": 1002946,
				"description": "INC-1002946: KIID warning is preventing UCITS trading on Traditional Website",
				"foundInVersion": "",
				"dateRequested": "20170210"
			}
		],
		"count": 3
	}
]