{
	"name": "INT",
	"children": [
		{
			"name": "INT",
			"children": [
				{
					"name": "*FILE",
					"children": [
						{
							"name": "Database",
							"children": [
								{
									"name": "STKSUP",
									"children": [],
									"size": "40",
									"weight": 0,
									"defects": []
								},
								{
									"name": "ACC",
									"children": [],
									"size": "19",
									"weight": 0,
									"defects": []
								}
							]
						}
					]
				}
			]
		}
	]
}